<?xml version="1.0" encoding="UTF-8" standalone="no"?>
<svg
   xmlns:dc="http://purl.org/dc/elements/1.1/"
   xmlns:cc="http://creativecommons.org/ns#"
   xmlns:rdf="http://www.w3.org/1999/02/22-rdf-syntax-ns#"
   xmlns:svg="http://www.w3.org/2000/svg"
   xmlns="http://www.w3.org/2000/svg"
   xmlns:sodipodi="http://sodipodi.sourceforge.net/DTD/sodipodi-0.dtd"
   xmlns:inkscape="http://www.inkscape.org/namespaces/inkscape"
   width="21.702513mm"
   height="21.204462mm"
   viewBox="0 0 21.702513 21.204462"
   version="1.1"
   id="svg6124"
   inkscape:version="1.0 (4035a4fb49, 2020-05-01)"
   sodipodi:docname="Clapet_Anti_Retour.svg">
  <defs
     id="defs6118" />
  <sodipodi:namedview
     id="base"
     pagecolor="#ffffff"
     bordercolor="#666666"
     borderopacity="1.0"
     inkscape:pageopacity="0.0"
     inkscape:pageshadow="2"
     inkscape:zoom="5.6"
     inkscape:cx="40.832537"
     inkscape:cy="84.024111"
     inkscape:document-units="mm"
     inkscape:current-layer="layer1"
     inkscape:document-rotation="0"
     showgrid="false"
     inkscape:window-width="1920"
     inkscape:window-height="1004"
     inkscape:window-x="0"
     inkscape:window-y="48"
     inkscape:window-maximized="1" />
  <metadata
     id="metadata6121">
    <rdf:RDF>
      <cc:Work
         rdf:about="">
        <dc:format>image/svg+xml</dc:format>
        <dc:type
           rdf:resource="http://purl.org/dc/dcmitype/StillImage" />
        <dc:title />
      </cc:Work>
    </rdf:RDF>
  </metadata>
  <g
     inkscape:label="Calque 1"
     inkscape:groupmode="layer"
     id="layer1"
     transform="translate(-85.154699,-120.93349)">
    <g
       fill="none"
       stroke="#000000"
       stroke-opacity="1"
       stroke-width="1"
       stroke-linecap="square"
       stroke-linejoin="miter"
       stroke-miterlimit="2"
       transform="matrix(0,0.16866923,-0.16866923,0,95.792255,133.14801)"
       font-family="Sans"
       font-size="12px"
       font-weight="400"
       font-style="normal"
       id="g528">
      <polyline
         fill="none"
         vector-effect="none"
         points="-9.3883,0.0444 -14.5052,0.0444 "
         id="polyline526" />
    </g>
    <g
       fill="none"
       stroke="#000000"
       stroke-opacity="1"
       stroke-width="1"
       stroke-linecap="square"
       stroke-linejoin="miter"
       stroke-miterlimit="2"
       transform="matrix(0,0.16866923,-0.16866923,0,95.792255,133.14801)"
       font-family="Sans"
       font-size="12px"
       font-weight="400"
       font-style="normal"
       id="g532">
      <polyline
         fill="none"
         vector-effect="none"
         points="9.4773,-0.0791 0.2224,-9.3339 "
         id="polyline530" />
    </g>
    <g
       fill="none"
       stroke="#000000"
       stroke-opacity="1"
       stroke-width="1"
       stroke-linecap="square"
       stroke-linejoin="miter"
       stroke-miterlimit="2"
       transform="matrix(0,0.16866923,-0.16866923,0,95.792255,133.14801)"
       font-family="Sans"
       font-size="12px"
       font-weight="400"
       font-style="normal"
       id="g536">
      <polyline
         fill="none"
         vector-effect="none"
         points="9.5564,0 0.3015,9.2548 "
         id="polyline534" />
    </g>
    <g
       fill="none"
       stroke="#000000"
       stroke-opacity="1"
       stroke-width="1"
       stroke-linecap="square"
       stroke-linejoin="bevel"
       transform="matrix(0,0.16866923,-0.16866923,0,95.792255,133.14801)"
       font-family="Sans"
       font-size="12px"
       font-weight="400"
       font-style="normal"
       id="g540">
      <circle
         cx="-1.91325"
         cy="4.9999999e-05"
         r="7.4393501"
         id="circle538" />
    </g>
    <g
       fill="none"
       stroke="#000000"
       stroke-opacity="1"
       stroke-width="1"
       stroke-linecap="square"
       stroke-linejoin="miter"
       stroke-miterlimit="2"
       transform="matrix(0,0.16866923,-0.16866923,0,95.792255,133.14801)"
       font-family="Sans"
       font-size="12px"
       font-weight="400"
       font-style="normal"
       id="g544">
      <polyline
         fill="none"
         vector-effect="none"
         points="9.7443,0 14.4608,0 "
         id="polyline542" />
    </g>
  </g>
</svg>
