<?xml version="1.0" encoding="UTF-8" standalone="no"?>
<svg
   xmlns:dc="http://purl.org/dc/elements/1.1/"
   xmlns:cc="http://creativecommons.org/ns#"
   xmlns:rdf="http://www.w3.org/1999/02/22-rdf-syntax-ns#"
   xmlns:svg="http://www.w3.org/2000/svg"
   xmlns="http://www.w3.org/2000/svg"
   xmlns:sodipodi="http://sodipodi.sourceforge.net/DTD/sodipodi-0.dtd"
   xmlns:inkscape="http://www.inkscape.org/namespaces/inkscape"
   width="21.702513mm"
   height="21.204462mm"
   viewBox="0 0 21.702513 21.204462"
   version="1.1"
   id="svg6241"
   inkscape:version="1.0 (4035a4fb49, 2020-05-01)"
   sodipodi:docname="Filtre.svg">
  <defs
     id="defs6235" />
  <sodipodi:namedview
     id="base"
     pagecolor="#ffffff"
     bordercolor="#666666"
     borderopacity="1.0"
     inkscape:pageopacity="0.0"
     inkscape:pageshadow="2"
     inkscape:zoom="1.4"
     inkscape:cx="212.63328"
     inkscape:cy="121.70323"
     inkscape:document-units="mm"
     inkscape:current-layer="layer1"
     inkscape:document-rotation="0"
     showgrid="false"
     inkscape:window-width="1920"
     inkscape:window-height="1004"
     inkscape:window-x="0"
     inkscape:window-y="48"
     inkscape:window-maximized="1" />
  <metadata
     id="metadata6238">
    <rdf:RDF>
      <cc:Work
         rdf:about="">
        <dc:format>image/svg+xml</dc:format>
        <dc:type
           rdf:resource="http://purl.org/dc/dcmitype/StillImage" />
        <dc:title />
      </cc:Work>
    </rdf:RDF>
  </metadata>
  <g
     inkscape:label="Calque 1"
     inkscape:groupmode="layer"
     id="layer1"
     transform="translate(-51.136839,-133.02872)">
    <g
       fill="none"
       stroke="#000000"
       stroke-opacity="1"
       stroke-dasharray="4, 2"
       stroke-dashoffset="0"
       stroke-width="1"
       stroke-linecap="square"
       stroke-linejoin="miter"
       stroke-miterlimit="2"
       transform="matrix(0,0.16866923,-0.16866923,0,62.313564,142.50269)"
       font-family="Sans"
       font-size="12px"
       font-weight="400"
       font-style="normal"
       id="g1244">
      <polyline
         fill="none"
         vector-effect="none"
         points="0,-19.25 0,19 "
         id="polyline1242" />
    </g>
    <g
       fill="none"
       stroke="#000000"
       stroke-opacity="1"
       stroke-width="1"
       stroke-linecap="square"
       stroke-linejoin="bevel"
       transform="matrix(0,0.16866923,-0.16866923,0,62.313564,142.50269)"
       font-family="Sans"
       font-size="12px"
       font-weight="400"
       font-style="normal"
       id="g1248">
      <polyline
         fill="none"
         vector-effect="none"
         points="0.1054,-19.8281 20.0391,0.1054 0.1054,20.0391 -19.9336,0 0,-19.9336 0,-19.9336 "
         id="polyline1246" />
    </g>
    <g
       fill="none"
       stroke="#000000"
       stroke-opacity="1"
       stroke-width="1"
       stroke-linecap="square"
       stroke-linejoin="miter"
       stroke-miterlimit="2"
       transform="matrix(0,0.16866923,-0.16866923,0,62.313564,142.50269)"
       font-family="Sans"
       font-size="12px"
       font-weight="400"
       font-style="normal"
       id="g1252">
      <polyline
         fill="none"
         vector-effect="none"
         points="-19.9336,0 -27.1055,0 "
         id="polyline1250" />
    </g>
    <g
       fill="none"
       stroke="#000000"
       stroke-opacity="1"
       stroke-width="1"
       stroke-linecap="square"
       stroke-linejoin="miter"
       stroke-miterlimit="2"
       transform="matrix(0,0.16866923,-0.16866923,0,62.313564,142.50269)"
       font-family="Sans"
       font-size="12px"
       font-weight="400"
       font-style="normal"
       id="g1256">
      <polyline
         fill="none"
         vector-effect="none"
         points="19.6172,0 27.3164,0 "
         id="polyline1254" />
    </g>
  </g>
</svg>
