<?xml version="1.0" encoding="UTF-8" standalone="no"?>
<svg
   xmlns:dc="http://purl.org/dc/elements/1.1/"
   xmlns:cc="http://creativecommons.org/ns#"
   xmlns:rdf="http://www.w3.org/1999/02/22-rdf-syntax-ns#"
   xmlns:svg="http://www.w3.org/2000/svg"
   xmlns="http://www.w3.org/2000/svg"
   xmlns:sodipodi="http://sodipodi.sourceforge.net/DTD/sodipodi-0.dtd"
   xmlns:inkscape="http://www.inkscape.org/namespaces/inkscape"
   width="21.702513mm"
   height="21.204462mm"
   viewBox="0 0 21.702513 21.204462"
   version="1.1"
   id="svg5580"
   inkscape:version="1.0 (4035a4fb49, 2020-05-01)"
   sodipodi:docname="Limiteur_Pression.svg">
  <defs
     id="defs5574" />
  <sodipodi:namedview
     id="base"
     pagecolor="#ffffff"
     bordercolor="#666666"
     borderopacity="1.0"
     inkscape:pageopacity="0.0"
     inkscape:pageshadow="2"
     inkscape:zoom="1.979899"
     inkscape:cx="95.785174"
     inkscape:cy="75.165971"
     inkscape:document-units="mm"
     inkscape:current-layer="layer1"
     inkscape:document-rotation="0"
     showgrid="false"
     inkscape:window-width="1920"
     inkscape:window-height="1004"
     inkscape:window-x="0"
     inkscape:window-y="48"
     inkscape:window-maximized="1" />
  <metadata
     id="metadata5577">
    <rdf:RDF>
      <cc:Work
         rdf:about="">
        <dc:format>image/svg+xml</dc:format>
        <dc:type
           rdf:resource="http://purl.org/dc/dcmitype/StillImage" />
        <dc:title />
      </cc:Work>
    </rdf:RDF>
  </metadata>
  <g
     inkscape:label="Calque 1"
     inkscape:groupmode="layer"
     id="layer1"
     transform="translate(-127.48803,-114.88586)">
    <g
       fill="none"
       stroke="#000000"
       stroke-opacity="1"
       stroke-width="1"
       stroke-linecap="square"
       stroke-linejoin="miter"
       stroke-miterlimit="2"
       transform="matrix(0,-0.16866923,0.16866923,0,138.91455,128.38868)"
       font-family="Sans"
       font-size="12px"
       font-weight="400"
       font-style="normal"
       id="g1178">
      <polyline
         fill="none"
         vector-effect="none"
         points="10,10 10,-15 "
         id="polyline1176" />
    </g>
    <g
       fill="none"
       stroke="#000000"
       stroke-opacity="1"
       stroke-width="1"
       stroke-linecap="square"
       stroke-linejoin="miter"
       stroke-miterlimit="2"
       transform="matrix(0,-0.16866923,0.16866923,0,138.91455,128.38868)"
       font-family="Sans"
       font-size="12px"
       font-weight="400"
       font-style="normal"
       id="g1182">
      <path
         vector-effect="none"
         fill-rule="evenodd"
         d="M 5,-15 H 35 V 15 H 5 v -30"
         id="path1180" />
    </g>
    <g
       fill="none"
       stroke="#000000"
       stroke-opacity="1"
       stroke-width="1"
       stroke-linecap="square"
       stroke-linejoin="miter"
       stroke-miterlimit="2"
       transform="matrix(0,-0.16866923,0.16866923,0,138.91455,128.38868)"
       font-family="Sans"
       font-size="12px"
       font-weight="400"
       font-style="normal"
       id="g1186">
      <polyline
         fill="none"
         vector-effect="none"
         points="-1,-25 -5,-25 "
         id="polyline1184" />
    </g>
    <g
       fill="none"
       stroke="#000000"
       stroke-opacity="1"
       stroke-width="1"
       stroke-linecap="square"
       stroke-linejoin="miter"
       stroke-miterlimit="2"
       transform="matrix(0,-0.16866923,0.16866923,0,138.91455,128.38868)"
       font-family="Sans"
       font-size="12px"
       font-weight="400"
       font-style="normal"
       id="g1190">
      <polyline
         fill="none"
         vector-effect="none"
         points="20,-30 20,-15 "
         id="polyline1188" />
    </g>
    <g
       fill="#000000"
       fill-opacity="1"
       stroke="#000000"
       stroke-opacity="1"
       stroke-width="1"
       stroke-linecap="square"
       stroke-linejoin="bevel"
       transform="matrix(0,-0.16866923,0.16866923,0,138.91455,128.38868)"
       font-family="Sans"
       font-size="12px"
       font-weight="400"
       font-style="normal"
       id="g1194">
      <path
         vector-effect="non-scaling-stroke"
         fill-rule="evenodd"
         d="m 8,9.5 h 4 l -2,5 -2,-5"
         id="path1192" />
    </g>
    <g
       fill="none"
       stroke="#000000"
       stroke-opacity="1"
       stroke-width="1"
       stroke-linecap="square"
       stroke-linejoin="bevel"
       transform="matrix(0,-0.16866923,0.16866923,0,138.91455,128.38868)"
       font-family="Sans"
       font-size="12px"
       font-weight="400"
       font-style="normal"
       id="g1198">
      <polyline
         fill="none"
         vector-effect="none"
         points="35,-10 37,-15 39,-7 41,-15 43,-7 45,-15 47,-10 "
         id="polyline1196" />
    </g>
    <g
       fill="none"
       stroke="#000000"
       stroke-opacity="1"
       stroke-width="1"
       stroke-linecap="square"
       stroke-linejoin="miter"
       stroke-miterlimit="2"
       transform="matrix(0,-0.16866923,0.16866923,0,138.91455,128.38868)"
       font-family="Sans"
       font-size="12px"
       font-weight="400"
       font-style="normal"
       id="g1202">
      <polyline
         fill="none"
         vector-effect="none"
         points="20,15 20,30 "
         id="polyline1200" />
    </g>
    <g
       fill="none"
       stroke="#000000"
       stroke-opacity="1"
       stroke-width="1"
       stroke-linecap="square"
       stroke-linejoin="miter"
       stroke-miterlimit="2"
       transform="matrix(0,-0.16866923,0.16866923,0,138.91455,128.38868)"
       font-family="Sans"
       font-size="12px"
       font-weight="400"
       font-style="normal"
       id="g1206">
      <polyline
         fill="none"
         vector-effect="none"
         points="1,-8 5,-8 "
         id="polyline1204" />
    </g>
    <g
       fill="none"
       stroke="#000000"
       stroke-opacity="1"
       stroke-width="1"
       stroke-linecap="square"
       stroke-linejoin="miter"
       stroke-miterlimit="2"
       transform="matrix(0,-0.16866923,0.16866923,0,138.91455,128.38868)"
       font-family="Sans"
       font-size="12px"
       font-weight="400"
       font-style="normal"
       id="g1210">
      <polyline
         fill="none"
         vector-effect="none"
         points="-5,-21 -5,-25 "
         id="polyline1208" />
    </g>
    <g
       fill="none"
       stroke="#000000"
       stroke-opacity="1"
       stroke-width="1"
       stroke-linecap="square"
       stroke-linejoin="miter"
       stroke-miterlimit="2"
       transform="matrix(0,-0.16866923,0.16866923,0,138.91455,128.38868)"
       font-family="Sans"
       font-size="12px"
       font-weight="400"
       font-style="normal"
       id="g1214">
      <polyline
         fill="none"
         vector-effect="none"
         points="-5,-13 -5,-18 "
         id="polyline1212" />
    </g>
    <g
       fill="none"
       stroke="#000000"
       stroke-opacity="1"
       stroke-width="1"
       stroke-linecap="square"
       stroke-linejoin="miter"
       stroke-miterlimit="2"
       transform="matrix(0,-0.16866923,0.16866923,0,138.91455,128.38868)"
       font-family="Sans"
       font-size="12px"
       font-weight="400"
       font-style="normal"
       id="g1218">
      <polyline
         fill="none"
         vector-effect="none"
         points="-5,-8 -5,-10 "
         id="polyline1216" />
    </g>
    <g
       fill="none"
       stroke="#000000"
       stroke-opacity="1"
       stroke-width="1"
       stroke-linecap="square"
       stroke-linejoin="miter"
       stroke-miterlimit="2"
       transform="matrix(0,-0.16866923,0.16866923,0,138.91455,128.38868)"
       font-family="Sans"
       font-size="12px"
       font-weight="400"
       font-style="normal"
       id="g1222">
      <polyline
         fill="none"
         vector-effect="none"
         points="-2,-8 -5,-8 "
         id="polyline1220" />
    </g>
    <g
       fill="none"
       stroke="#000000"
       stroke-opacity="1"
       stroke-width="1"
       stroke-linecap="square"
       stroke-linejoin="miter"
       stroke-miterlimit="2"
       transform="matrix(0,-0.16866923,0.16866923,0,138.91455,128.38868)"
       font-family="Sans"
       font-size="12px"
       font-weight="400"
       font-style="normal"
       id="g1226">
      <polyline
         fill="none"
         vector-effect="none"
         points="7,-25 2,-25 "
         id="polyline1224" />
    </g>
    <g
       fill="none"
       stroke="#000000"
       stroke-opacity="1"
       stroke-width="1"
       stroke-linecap="square"
       stroke-linejoin="miter"
       stroke-miterlimit="2"
       transform="matrix(0,-0.16866923,0.16866923,0,138.91455,128.38868)"
       font-family="Sans"
       font-size="12px"
       font-weight="400"
       font-style="normal"
       id="g1230">
      <polyline
         fill="none"
         vector-effect="none"
         points="14,-21 10,-25 "
         id="polyline1228" />
    </g>
    <g
       fill="none"
       stroke="#000000"
       stroke-opacity="1"
       stroke-width="1"
       stroke-linecap="square"
       stroke-linejoin="miter"
       stroke-miterlimit="2"
       transform="matrix(0,-0.16866923,0.16866923,0,138.91455,128.38868)"
       font-family="Sans"
       font-size="12px"
       font-weight="400"
       font-style="normal"
       id="g1234">
      <polyline
         fill="none"
         vector-effect="none"
         points="20,-15 16,-19 "
         id="polyline1232" />
    </g>
  </g>
</svg>
