<?xml version="1.0" encoding="UTF-8" standalone="no"?>
<svg
   xmlns:dc="http://purl.org/dc/elements/1.1/"
   xmlns:cc="http://creativecommons.org/ns#"
   xmlns:rdf="http://www.w3.org/1999/02/22-rdf-syntax-ns#"
   xmlns:svg="http://www.w3.org/2000/svg"
   xmlns="http://www.w3.org/2000/svg"
   xmlns:sodipodi="http://sodipodi.sourceforge.net/DTD/sodipodi-0.dtd"
   xmlns:inkscape="http://www.inkscape.org/namespaces/inkscape"
   width="21.702513mm"
   height="21.204462mm"
   viewBox="0 0 21.702513 21.204462"
   version="1.1"
   id="svg4806"
   inkscape:version="1.0 (4035a4fb49, 2020-05-01)"
   sodipodi:docname="Presostat.svg">
  <defs
     id="defs4800" />
  <sodipodi:namedview
     id="base"
     pagecolor="#ffffff"
     bordercolor="#666666"
     borderopacity="1.0"
     inkscape:pageopacity="0.0"
     inkscape:pageshadow="2"
     inkscape:zoom="1.4"
     inkscape:cx="356.21135"
     inkscape:cy="236.38693"
     inkscape:document-units="mm"
     inkscape:current-layer="layer1"
     inkscape:document-rotation="0"
     showgrid="false"
     inkscape:window-width="1920"
     inkscape:window-height="1004"
     inkscape:window-x="0"
     inkscape:window-y="48"
     inkscape:window-maximized="1" />
  <metadata
     id="metadata4803">
    <rdf:RDF>
      <cc:Work
         rdf:about="">
        <dc:format>image/svg+xml</dc:format>
        <dc:type
           rdf:resource="http://purl.org/dc/dcmitype/StillImage" />
        <dc:title />
      </cc:Work>
    </rdf:RDF>
  </metadata>
  <g
     inkscape:label="Calque 1"
     inkscape:groupmode="layer"
     id="layer1"
     transform="translate(-86.666601,-133.78467)">
    <g
       fill="#000000"
       fill-opacity="1"
       stroke="#000000"
       stroke-opacity="1"
       stroke-width="1"
       stroke-linecap="square"
       stroke-linejoin="bevel"
       transform="matrix(-0.16866923,0,0,-0.16866923,102.93187,143.1267)"
       font-family="Sans"
       font-size="12px"
       font-weight="400"
       font-style="normal"
       id="g2090">
      <circle
         cx="35"
         cy="0"
         r="0.5"
         id="circle2088" />
    </g>
    <g
       fill="#000000"
       fill-opacity="1"
       stroke="#000000"
       stroke-opacity="1"
       stroke-width="1"
       stroke-linecap="square"
       stroke-linejoin="bevel"
       transform="matrix(-0.16866923,0,0,-0.16866923,102.93187,143.1267)"
       font-family="Sans"
       font-size="12px"
       font-weight="400"
       font-style="normal"
       id="g2094">
      <circle
         cx="35"
         cy="-7"
         r="0.5"
         id="circle2092" />
    </g>
    <g
       fill="none"
       stroke="#000000"
       stroke-opacity="1"
       stroke-width="1"
       stroke-linecap="square"
       stroke-linejoin="miter"
       stroke-miterlimit="2"
       transform="matrix(-0.16866923,0,0,-0.16866923,102.93187,143.1267)"
       font-family="Sans"
       font-size="12px"
       font-weight="400"
       font-style="normal"
       id="g2098">
      <path
         vector-effect="none"
         fill-rule="evenodd"
         d="M 10,-25 H 40 V 5 H 10 v -30"
         id="path2096" />
    </g>
    <g
       fill="none"
       stroke="#000000"
       stroke-opacity="1"
       stroke-width="1"
       stroke-linecap="square"
       stroke-linejoin="miter"
       stroke-miterlimit="2"
       transform="matrix(-0.16866923,0,0,-0.16866923,102.93187,143.1267)"
       font-family="Sans"
       font-size="12px"
       font-weight="400"
       font-style="normal"
       id="g2102">
      <polyline
         fill="none"
         vector-effect="none"
         points="35,-7 35,-12 "
         id="polyline2100" />
    </g>
    <g
       fill="none"
       stroke="#000000"
       stroke-opacity="1"
       stroke-width="1"
       stroke-linecap="square"
       stroke-linejoin="bevel"
       transform="matrix(-0.16866923,0,0,-0.16866923,102.93187,143.1267)"
       font-family="Sans"
       font-size="12px"
       font-weight="400"
       font-style="normal"
       id="g2106">
      <polyline
         fill="none"
         vector-effect="none"
         points="35,5 35,0 32,-6 "
         id="polyline2104" />
    </g>
    <g
       fill="none"
       stroke="#000000"
       stroke-opacity="1"
       stroke-width="1"
       stroke-linecap="square"
       stroke-linejoin="bevel"
       transform="matrix(-0.16866923,0,0,-0.16866923,102.93187,143.1267)"
       font-family="Sans"
       font-size="12px"
       font-weight="400"
       font-style="normal"
       id="g2110">
      <polyline
         fill="none"
         vector-effect="none"
         points="40,-20 42,-25 44,-17 46,-25 48,-17 50,-25 52,-20 "
         id="polyline2108" />
    </g>
    <g
       fill="none"
       stroke="#000000"
       stroke-opacity="1"
       stroke-width="1"
       stroke-linecap="square"
       stroke-linejoin="bevel"
       transform="matrix(-0.16866923,0,0,-0.16866923,102.93187,143.1267)"
       font-family="Sans"
       font-size="12px"
       font-weight="400"
       font-style="normal"
       id="g2114">
      <path
         vector-effect="none"
         fill-rule="evenodd"
         d="m 10,-13 v 6 l 6,-3 -6,-3"
         id="path2112" />
    </g>
    <g
       fill="none"
       stroke="#000000"
       stroke-opacity="1"
       stroke-width="1"
       stroke-linecap="square"
       stroke-linejoin="miter"
       stroke-miterlimit="2"
       transform="matrix(-0.16866923,0,0,-0.16866923,102.93187,143.1267)"
       font-family="Sans"
       font-size="12px"
       font-weight="400"
       font-style="normal"
       id="g2118">
      <polyline
         fill="none"
         vector-effect="none"
         points="11,4 39,-24 "
         id="polyline2116" />
    </g>
    <g
       fill="none"
       stroke="#000000"
       stroke-opacity="1"
       stroke-width="1"
       stroke-linecap="square"
       stroke-linejoin="miter"
       stroke-miterlimit="2"
       transform="matrix(-0.16866923,0,0,-0.16866923,102.93187,143.1267)"
       font-family="Sans"
       font-size="12px"
       font-weight="400"
       font-style="normal"
       id="g2122">
      <polyline
         fill="none"
         vector-effect="none"
         points="-10,-10 -6,-10 "
         id="polyline2120" />
    </g>
    <g
       fill="none"
       stroke="#000000"
       stroke-opacity="1"
       stroke-width="1"
       stroke-linecap="square"
       stroke-linejoin="miter"
       stroke-miterlimit="2"
       transform="matrix(-0.16866923,0,0,-0.16866923,102.93187,143.1267)"
       font-family="Sans"
       font-size="12px"
       font-weight="400"
       font-style="normal"
       id="g2126">
      <polyline
         fill="none"
         vector-effect="none"
         points="6,-10 10,-10 "
         id="polyline2124" />
    </g>
    <g
       fill="none"
       stroke="#000000"
       stroke-opacity="1"
       stroke-width="1"
       stroke-linecap="square"
       stroke-linejoin="miter"
       stroke-miterlimit="2"
       transform="matrix(-0.16866923,0,0,-0.16866923,102.93187,143.1267)"
       font-family="Sans"
       font-size="12px"
       font-weight="400"
       font-style="normal"
       id="g2130">
      <polyline
         fill="none"
         vector-effect="none"
         points="-2,-10 2,-10 "
         id="polyline2128" />
    </g>
  </g>
</svg>
