<?xml version="1.0" encoding="UTF-8" standalone="no"?>
<svg
   xmlns:dc="http://purl.org/dc/elements/1.1/"
   xmlns:cc="http://creativecommons.org/ns#"
   xmlns:rdf="http://www.w3.org/1999/02/22-rdf-syntax-ns#"
   xmlns:svg="http://www.w3.org/2000/svg"
   xmlns="http://www.w3.org/2000/svg"
   xmlns:sodipodi="http://sodipodi.sourceforge.net/DTD/sodipodi-0.dtd"
   xmlns:inkscape="http://www.inkscape.org/namespaces/inkscape"
   width="21.702513mm"
   height="21.204462mm"
   viewBox="0 0 21.702513 21.204462"
   version="1.1"
   id="svg1366"
   inkscape:version="1.0 (4035a4fb49, 2020-05-01)"
   sodipodi:docname="Reducteur_Pression.svg">
  <defs
     id="defs1360" />
  <sodipodi:namedview
     id="base"
     pagecolor="#ffffff"
     bordercolor="#666666"
     borderopacity="1.0"
     inkscape:pageopacity="0.0"
     inkscape:pageshadow="2"
     inkscape:zoom="1.979899"
     inkscape:cx="95.850802"
     inkscape:cy="190.4255"
     inkscape:document-units="mm"
     inkscape:current-layer="layer1"
     inkscape:document-rotation="0"
     showgrid="false"
     inkscape:window-width="1920"
     inkscape:window-height="1004"
     inkscape:window-x="0"
     inkscape:window-y="48"
     inkscape:window-maximized="1" />
  <metadata
     id="metadata1363">
    <rdf:RDF>
      <cc:Work
         rdf:about="">
        <dc:format>image/svg+xml</dc:format>
        <dc:type
           rdf:resource="http://purl.org/dc/dcmitype/StillImage" />
        <dc:title />
      </cc:Work>
    </rdf:RDF>
  </metadata>
  <g
     inkscape:label="Calque 1"
     inkscape:groupmode="layer"
     id="layer1"
     transform="translate(-121.44041,-118.66563)">
    <g
       id="g2162"
       font-style="normal"
       font-weight="400"
       font-size="12px"
       font-family="Sans"
       transform="matrix(0,0.16866923,-0.16866923,0,128.00692,129.92415)"
       stroke-miterlimit="2"
       stroke-linejoin="miter"
       stroke-linecap="square"
       stroke-width="1"
       stroke-opacity="1"
       stroke="#000000"
       fill="none">
      <polyline
         id="polyline2160"
         points="-17,-42 -18,-42 "
         vector-effect="none"
         fill="none" />
    </g>
    <g
       id="g2166"
       font-style="normal"
       font-weight="400"
       font-size="12px"
       font-family="Sans"
       transform="matrix(0,0.16866923,-0.16866923,0,128.00692,129.92415)"
       stroke-miterlimit="2"
       stroke-linejoin="miter"
       stroke-linecap="square"
       stroke-width="1"
       stroke-opacity="1"
       stroke="#000000"
       fill="none">
      <polyline
         id="polyline2164"
         points="-18,-42 -18,-41 "
         vector-effect="none"
         fill="none" />
    </g>
    <g
       id="g2170"
       font-style="normal"
       font-weight="400"
       font-size="12px"
       font-family="Sans"
       transform="matrix(0,0.16866923,-0.16866923,0,128.00692,129.92415)"
       stroke-miterlimit="2"
       stroke-linejoin="miter"
       stroke-linecap="square"
       stroke-width="1"
       stroke-opacity="1"
       stroke="#000000"
       fill="none">
      <polyline
         id="polyline2168"
         points="18,-12 18,-36 "
         vector-effect="none"
         fill="none" />
    </g>
    <g
       id="g2174"
       font-style="normal"
       font-weight="400"
       font-size="12px"
       font-family="Sans"
       transform="matrix(0,0.16866923,-0.16866923,0,128.00692,129.92415)"
       stroke-miterlimit="2"
       stroke-linejoin="miter"
       stroke-linecap="square"
       stroke-width="1"
       stroke-opacity="1"
       stroke="#000000"
       fill="none">
      <polyline
         id="polyline2172"
         points="-6,-36 -6,-12 "
         vector-effect="none"
         fill="none" />
    </g>
    <g
       id="g2178"
       font-style="normal"
       font-weight="400"
       font-size="12px"
       font-family="Sans"
       transform="matrix(0,0.16866923,-0.16866923,0,128.00692,129.92415)"
       stroke-miterlimit="2"
       stroke-linejoin="miter"
       stroke-linecap="square"
       stroke-width="1"
       stroke-opacity="1"
       stroke="#000000"
       fill="none">
      <polyline
         id="polyline2176"
         points="-6,-12 18,-12 "
         vector-effect="none"
         fill="none" />
    </g>
    <g
       id="g2190"
       font-style="normal"
       font-weight="400"
       font-size="12px"
       font-family="Sans"
       transform="matrix(0,0.16866923,-0.16866923,0,128.00692,129.92415)"
       stroke-miterlimit="2"
       stroke-linejoin="miter"
       stroke-linecap="square"
       stroke-width="1"
       stroke-opacity="1"
       stroke="#000000"
       fill="none">
      <polyline
         id="polyline2188"
         points="18,-36 -6,-36 "
         vector-effect="none"
         fill="none" />
    </g>
    <g
       id="g2196"
       font-style="normal"
       font-weight="400"
       font-size="12px"
       font-family="Sans"
       transform="matrix(0,0.16866923,-0.16866923,0,128.00692,129.92415)"
       stroke-miterlimit="2"
       stroke-linejoin="miter"
       stroke-linecap="square"
       stroke-width="1"
       stroke-opacity="1"
       stroke="#000000"
       fill-opacity="1"
       fill="#000000">
      <path
         id="path2192"
         d="m 26.7193,-26.5265 1.4735,0.2807 L 27,-28 l -1.7542,1.1928 1.4735,0.2807"
         fill-rule="evenodd"
         vector-effect="none" />
      <polyline
         id="polyline2194"
         points="23,-7 26.7193,-26.5265 "
         vector-effect="none"
         fill="none" />
    </g>
    <g
       id="g2200"
       font-style="normal"
       font-weight="400"
       font-size="12px"
       font-family="Sans"
       transform="matrix(0,0.16866923,-0.16866923,0,128.00692,129.92415)"
       stroke-miterlimit="2"
       stroke-linejoin="miter"
       stroke-linecap="square"
       stroke-width="1"
       stroke-opacity="1"
       stroke="#000000"
       fill="none">
      <polyline
         id="polyline2198"
         points="26,-12 29,-24 "
         vector-effect="none"
         fill="none" />
    </g>
    <g
       id="g2204"
       font-style="normal"
       font-weight="400"
       font-size="12px"
       font-family="Sans"
       transform="matrix(0,0.16866923,-0.16866923,0,128.00692,129.92415)"
       stroke-miterlimit="2"
       stroke-linejoin="miter"
       stroke-linecap="square"
       stroke-width="1"
       stroke-opacity="1"
       stroke="#000000"
       fill="none">
      <polyline
         id="polyline2202"
         points="24,-24 26,-12 "
         vector-effect="none"
         fill="none" />
    </g>
    <g
       id="g2208"
       font-style="normal"
       font-weight="400"
       font-size="12px"
       font-family="Sans"
       transform="matrix(0,0.16866923,-0.16866923,0,128.00692,129.92415)"
       stroke-miterlimit="2"
       stroke-linejoin="miter"
       stroke-linecap="square"
       stroke-width="1"
       stroke-opacity="1"
       stroke="#000000"
       fill="none">
      <polyline
         id="polyline2206"
         points="21,-12 24,-24 "
         vector-effect="none"
         fill="none" />
    </g>
    <g
       id="g2212"
       font-style="normal"
       font-weight="400"
       font-size="12px"
       font-family="Sans"
       transform="matrix(0,0.16866923,-0.16866923,0,128.00692,129.92415)"
       stroke-miterlimit="2"
       stroke-linejoin="miter"
       stroke-linecap="square"
       stroke-width="1"
       stroke-opacity="1"
       stroke="#000000"
       fill="none">
      <polyline
         id="polyline2210"
         points="19,-24 21,-12 "
         vector-effect="none"
         fill="none" />
    </g>
    <g
       id="g2216"
       font-style="normal"
       font-weight="400"
       font-size="12px"
       font-family="Sans"
       transform="matrix(0,0.16866923,-0.16866923,0,128.00692,129.92415)"
       stroke-miterlimit="2"
       stroke-linejoin="miter"
       stroke-linecap="square"
       stroke-width="1"
       stroke-opacity="1"
       stroke="#000000"
       fill="none">
      <polyline
         id="polyline2214"
         points="18,-18 19,-24 "
         vector-effect="none"
         fill="none" />
    </g>
    <g
       id="g2220"
       font-style="normal"
       font-weight="400"
       font-size="12px"
       font-family="Sans"
       transform="matrix(0,0.16866923,-0.16866923,0,128.00692,129.92415)"
       stroke-miterlimit="2"
       stroke-linejoin="miter"
       stroke-linecap="square"
       stroke-width="1"
       stroke-opacity="1"
       stroke="#000000"
       fill="none">
      <polyline
         id="polyline2218"
         points="31,-12 33,-18 "
         vector-effect="none"
         fill="none" />
    </g>
    <g
       id="g2224"
       font-style="normal"
       font-weight="400"
       font-size="12px"
       font-family="Sans"
       transform="matrix(0,0.16866923,-0.16866923,0,128.00692,129.92415)"
       stroke-miterlimit="2"
       stroke-linejoin="miter"
       stroke-linecap="square"
       stroke-width="1"
       stroke-opacity="1"
       stroke="#000000"
       fill="none">
      <polyline
         id="polyline2222"
         points="29,-24 31,-12 "
         vector-effect="none"
         fill="none" />
    </g>
    <g
       id="g2228"
       font-style="normal"
       font-weight="400"
       font-size="12px"
       font-family="Sans"
       transform="matrix(0,0.16866923,-0.16866923,0,128.00692,129.92415)"
       stroke-miterlimit="2"
       stroke-linejoin="miter"
       stroke-linecap="square"
       stroke-width="1"
       stroke-opacity="1"
       stroke="#000000"
       fill="none">
      <polyline
         id="polyline2226"
         points="-18,-28 -18,-24 "
         vector-effect="none"
         fill="none" />
    </g>
    <g
       id="g2236"
       font-style="normal"
       font-weight="400"
       font-size="12px"
       font-family="Sans"
       transform="matrix(0,0.16866923,-0.16866923,0,128.00692,129.92415)"
       stroke-miterlimit="2"
       stroke-linejoin="miter"
       stroke-linecap="square"
       stroke-width="1"
       stroke-opacity="1"
       stroke="#000000"
       fill-opacity="1"
       fill="#000000">
      <path
         id="path2230"
         d="M 0,-14.5 H -1.5 L 0,-13 1.5,-14.5 H 0"
         fill-rule="evenodd"
         vector-effect="none" />
      <path
         id="path2232"
         d="M 0,-33.5 H 1.5 L 0,-35 -1.5,-33.5 H 0"
         fill-rule="evenodd"
         vector-effect="none" />
      <polyline
         id="polyline2234"
         points="0,-14.5 0,-33.5 "
         vector-effect="none"
         fill="none" />
    </g>
    <g
       id="g2240"
       font-style="normal"
       font-weight="400"
       font-size="12px"
       font-family="Sans"
       transform="matrix(0,0.16866923,-0.16866923,0,128.00692,129.92415)"
       stroke-miterlimit="2"
       stroke-linejoin="miter"
       stroke-linecap="square"
       stroke-width="1"
       stroke-opacity="1"
       stroke="#000000"
       fill="none">
      <polyline
         id="polyline2238"
         points="-10,-18 -6,-18 "
         vector-effect="none"
         fill="none" />
    </g>
    <g
       id="g2244"
       font-style="normal"
       font-weight="400"
       font-size="12px"
       font-family="Sans"
       transform="matrix(0,0.16866923,-0.16866923,0,128.00692,129.92415)"
       stroke-miterlimit="2"
       stroke-linejoin="miter"
       stroke-linecap="square"
       stroke-width="1"
       stroke-opacity="1"
       stroke="#000000"
       fill="none">
      <polyline
         id="polyline2242"
         points="-18,-18 -14,-18 "
         vector-effect="none"
         fill="none" />
    </g>
    <g
       id="g2248"
       font-style="normal"
       font-weight="400"
       font-size="12px"
       font-family="Sans"
       transform="matrix(0,0.16866923,-0.16866923,0,128.00692,129.92415)"
       stroke-miterlimit="2"
       stroke-linejoin="miter"
       stroke-linecap="square"
       stroke-width="1"
       stroke-opacity="1"
       stroke="#000000"
       fill="none">
      <polyline
         id="polyline2246"
         points="-18,-21 -18,-18 "
         vector-effect="none"
         fill="none" />
    </g>
    <g
       id="g2252"
       font-style="normal"
       font-weight="400"
       font-size="12px"
       font-family="Sans"
       transform="matrix(0,0.16866923,-0.16866923,0,128.00692,129.92415)"
       stroke-miterlimit="2"
       stroke-linejoin="miter"
       stroke-linecap="square"
       stroke-width="1"
       stroke-opacity="1"
       stroke="#000000"
       fill="none">
      <polyline
         id="polyline2250"
         points="0,-12 0,0 "
         vector-effect="none"
         fill="none" />
    </g>
    <g
       id="g2256"
       font-style="normal"
       font-weight="400"
       font-size="12px"
       font-family="Sans"
       transform="matrix(0,0.16866923,-0.16866923,0,128.00692,129.92415)"
       stroke-miterlimit="2"
       stroke-linejoin="miter"
       stroke-linecap="square"
       stroke-width="1"
       stroke-opacity="1"
       stroke="#000000"
       fill="none">
      <polyline
         id="polyline2254"
         points="-6,-42 -10,-42 "
         vector-effect="none"
         fill="none" />
    </g>
    <g
       id="g2262"
       font-style="normal"
       font-weight="400"
       font-size="12px"
       font-family="Sans"
       transform="matrix(0,0.16866923,-0.16866923,0,128.00692,129.92415)"
       stroke-miterlimit="2"
       stroke-linejoin="miter"
       stroke-linecap="square"
       stroke-width="1"
       stroke-opacity="1"
       stroke="#000000"
       fill-opacity="1"
       fill="#000000">
      <circle
         id="circle2258"
         r="1.5"
         cy="-42"
         cx="-17.5" />
      <polyline
         id="polyline2260"
         points="-13,-42 -15.75,-42 "
         vector-effect="none"
         fill="none" />
    </g>
    <g
       id="g2266"
       font-style="normal"
       font-weight="400"
       font-size="12px"
       font-family="Sans"
       transform="matrix(0,0.16866923,-0.16866923,0,128.00692,129.92415)"
       stroke-miterlimit="2"
       stroke-linejoin="miter"
       stroke-linecap="square"
       stroke-width="1"
       stroke-opacity="1"
       stroke="#000000"
       fill="none">
      <polyline
         id="polyline2264"
         points="-18,-42 -18,-38 "
         vector-effect="none"
         fill="none" />
    </g>
    <g
       id="g2270"
       font-style="normal"
       font-weight="400"
       font-size="12px"
       font-family="Sans"
       transform="matrix(0,0.16866923,-0.16866923,0,128.00692,129.92415)"
       stroke-miterlimit="2"
       stroke-linejoin="miter"
       stroke-linecap="square"
       stroke-width="1"
       stroke-opacity="1"
       stroke="#000000"
       fill="none">
      <polyline
         id="polyline2268"
         points="-18,-35 -18,-31 "
         vector-effect="none"
         fill="none" />
    </g>
    <g
       id="g2274"
       font-style="normal"
       font-weight="400"
       font-size="12px"
       font-family="Sans"
       transform="matrix(0,0.16866923,-0.16866923,0,128.00692,129.92415)"
       stroke-miterlimit="2"
       stroke-linejoin="miter"
       stroke-linecap="square"
       stroke-width="1"
       stroke-opacity="1"
       stroke="#000000"
       fill="none">
      <polyline
         id="polyline2272"
         points="0,-48 0,-36 "
         vector-effect="none"
         fill="none" />
    </g>
    <g
       id="g2278"
       font-style="normal"
       font-weight="400"
       font-size="12px"
       font-family="Sans"
       transform="matrix(0,0.16866923,-0.16866923,0,128.00692,129.92415)"
       stroke-miterlimit="2"
       stroke-linejoin="miter"
       stroke-linecap="square"
       stroke-width="1"
       stroke-opacity="1"
       stroke="#000000"
       fill="none">
      <polyline
         id="polyline2276"
         points="0,-36 -6,-42 "
         vector-effect="none"
         fill="none" />
    </g>
  </g>
</svg>
