<?xml version="1.0" encoding="UTF-8" standalone="no"?>
<svg
   xmlns:dc="http://purl.org/dc/elements/1.1/"
   xmlns:cc="http://creativecommons.org/ns#"
   xmlns:rdf="http://www.w3.org/1999/02/22-rdf-syntax-ns#"
   xmlns:svg="http://www.w3.org/2000/svg"
   xmlns="http://www.w3.org/2000/svg"
   xmlns:sodipodi="http://sodipodi.sourceforge.net/DTD/sodipodi-0.dtd"
   xmlns:inkscape="http://www.inkscape.org/namespaces/inkscape"
   width="21.702513mm"
   height="21.204462mm"
   viewBox="0 0 21.702513 21.204462"
   version="1.1"
   id="svg4985"
   inkscape:version="1.0 (4035a4fb49, 2020-05-01)"
   sodipodi:docname="Vacuostat.svg">
  <defs
     id="defs4979" />
  <sodipodi:namedview
     id="base"
     pagecolor="#ffffff"
     bordercolor="#666666"
     borderopacity="1.0"
     inkscape:pageopacity="0.0"
     inkscape:pageshadow="2"
     inkscape:zoom="1.979899"
     inkscape:cx="-197.41623"
     inkscape:cy="42.94411"
     inkscape:document-units="mm"
     inkscape:current-layer="layer1"
     inkscape:document-rotation="0"
     showgrid="false"
     inkscape:window-width="1920"
     inkscape:window-height="1004"
     inkscape:window-x="0"
     inkscape:window-y="48"
     inkscape:window-maximized="1" />
  <metadata
     id="metadata4982">
    <rdf:RDF>
      <cc:Work
         rdf:about="">
        <dc:format>image/svg+xml</dc:format>
        <dc:type
           rdf:resource="http://purl.org/dc/dcmitype/StillImage" />
        <dc:title />
      </cc:Work>
    </rdf:RDF>
  </metadata>
  <g
     inkscape:label="Calque 1"
     inkscape:groupmode="layer"
     id="layer1"
     transform="translate(-110.10113,-83.891815)">
    <g
       fill="#000000"
       fill-opacity="1"
       stroke="#000000"
       stroke-opacity="1"
       stroke-width="1"
       stroke-linecap="square"
       stroke-linejoin="bevel"
       transform="matrix(-0.16866923,0,0,-0.16866923,126.33296,91.648136)"
       font-family="Sans"
       font-size="12px"
       font-weight="400"
       font-style="normal"
       id="g478">
      <circle
         cx="35"
         cy="0"
         r="0.5"
         id="circle476" />
    </g>
    <g
       fill="#000000"
       fill-opacity="1"
       stroke="#000000"
       stroke-opacity="1"
       stroke-width="1"
       stroke-linecap="square"
       stroke-linejoin="bevel"
       transform="matrix(-0.16866923,0,0,-0.16866923,126.33296,91.648136)"
       font-family="Sans"
       font-size="12px"
       font-weight="400"
       font-style="normal"
       id="g482">
      <circle
         cx="35"
         cy="-7"
         r="0.5"
         id="circle480" />
    </g>
    <g
       fill="none"
       stroke="#000000"
       stroke-opacity="1"
       stroke-width="1"
       stroke-linecap="square"
       stroke-linejoin="miter"
       stroke-miterlimit="2"
       transform="matrix(-0.16866923,0,0,-0.16866923,126.33296,91.648136)"
       font-family="Sans"
       font-size="12px"
       font-weight="400"
       font-style="normal"
       id="g486">
      <path
         vector-effect="none"
         fill-rule="evenodd"
         d="M 10,-25 H 40 V 5 H 10 v -30"
         id="path484" />
    </g>
    <g
       fill="none"
       stroke="#000000"
       stroke-opacity="1"
       stroke-width="1"
       stroke-linecap="square"
       stroke-linejoin="miter"
       stroke-miterlimit="2"
       transform="matrix(-0.16866923,0,0,-0.16866923,126.33296,91.648136)"
       font-family="Sans"
       font-size="12px"
       font-weight="400"
       font-style="normal"
       id="g490">
      <polyline
         fill="none"
         vector-effect="none"
         points="35,-7 35,-12 "
         id="polyline488" />
    </g>
    <g
       fill="none"
       stroke="#000000"
       stroke-opacity="1"
       stroke-width="1"
       stroke-linecap="square"
       stroke-linejoin="bevel"
       transform="matrix(-0.16866923,0,0,-0.16866923,126.33296,91.648136)"
       font-family="Sans"
       font-size="12px"
       font-weight="400"
       font-style="normal"
       id="g494">
      <polyline
         fill="none"
         vector-effect="none"
         points="35,5 35,0 32,-6 "
         id="polyline492" />
    </g>
    <g
       fill="none"
       stroke="#000000"
       stroke-opacity="1"
       stroke-width="1"
       stroke-linecap="square"
       stroke-linejoin="bevel"
       transform="matrix(-0.16866923,0,0,-0.16866923,126.33296,91.648136)"
       font-family="Sans"
       font-size="12px"
       font-weight="400"
       font-style="normal"
       id="g498">
      <polyline
         fill="none"
         vector-effect="none"
         points="40,-20 42,-25 44,-17 46,-25 48,-17 50,-25 52,-20 "
         id="polyline496" />
    </g>
    <g
       fill="none"
       stroke="#000000"
       stroke-opacity="1"
       stroke-width="1"
       stroke-linecap="square"
       stroke-linejoin="bevel"
       transform="matrix(-0.16866923,0,0,-0.16866923,126.33296,91.648136)"
       font-family="Sans"
       font-size="12px"
       font-weight="400"
       font-style="normal"
       id="g502">
      <path
         vector-effect="none"
         fill-rule="evenodd"
         d="m 16,-13 v 6 l -6,-3 6,-3"
         id="path500" />
    </g>
    <g
       fill="none"
       stroke="#000000"
       stroke-opacity="1"
       stroke-width="1"
       stroke-linecap="square"
       stroke-linejoin="miter"
       stroke-miterlimit="2"
       transform="matrix(-0.16866923,0,0,-0.16866923,126.33296,91.648136)"
       font-family="Sans"
       font-size="12px"
       font-weight="400"
       font-style="normal"
       id="g506">
      <polyline
         fill="none"
         vector-effect="none"
         points="11,4 39,-24 "
         id="polyline504" />
    </g>
    <g
       fill="none"
       stroke="#000000"
       stroke-opacity="1"
       stroke-width="1"
       stroke-linecap="square"
       stroke-linejoin="miter"
       stroke-miterlimit="2"
       transform="matrix(-0.16866923,0,0,-0.16866923,126.33296,91.648136)"
       font-family="Sans"
       font-size="12px"
       font-weight="400"
       font-style="normal"
       id="g510">
      <polyline
         fill="none"
         vector-effect="none"
         points="-10,-10 -6,-10 "
         id="polyline508" />
    </g>
    <g
       fill="none"
       stroke="#000000"
       stroke-opacity="1"
       stroke-width="1"
       stroke-linecap="square"
       stroke-linejoin="miter"
       stroke-miterlimit="2"
       transform="matrix(-0.16866923,0,0,-0.16866923,126.33296,91.648136)"
       font-family="Sans"
       font-size="12px"
       font-weight="400"
       font-style="normal"
       id="g514">
      <polyline
         fill="none"
         vector-effect="none"
         points="6,-10 10,-10 "
         id="polyline512" />
    </g>
    <g
       fill="none"
       stroke="#000000"
       stroke-opacity="1"
       stroke-width="1"
       stroke-linecap="square"
       stroke-linejoin="miter"
       stroke-miterlimit="2"
       transform="matrix(-0.16866923,0,0,-0.16866923,126.33296,91.648136)"
       font-family="Sans"
       font-size="12px"
       font-weight="400"
       font-style="normal"
       id="g518">
      <polyline
         fill="none"
         vector-effect="none"
         points="-2,-10 2,-10 "
         id="polyline516" />
    </g>
  </g>
</svg>
