<?xml version="1.0" encoding="UTF-8" standalone="no"?>
<svg
   xmlns:dc="http://purl.org/dc/elements/1.1/"
   xmlns:cc="http://creativecommons.org/ns#"
   xmlns:rdf="http://www.w3.org/1999/02/22-rdf-syntax-ns#"
   xmlns:svg="http://www.w3.org/2000/svg"
   xmlns="http://www.w3.org/2000/svg"
   xmlns:sodipodi="http://sodipodi.sourceforge.net/DTD/sodipodi-0.dtd"
   xmlns:inkscape="http://www.inkscape.org/namespaces/inkscape"
   width="21.702513mm"
   height="21.204462mm"
   viewBox="0 0 21.702513 21.204462"
   version="1.1"
   id="svg2879"
   inkscape:version="1.0 (4035a4fb49, 2020-05-01)"
   sodipodi:docname="Verin_Plongeur.svg">
  <defs
     id="defs2873" />
  <sodipodi:namedview
     id="base"
     pagecolor="#ffffff"
     bordercolor="#666666"
     borderopacity="1.0"
     inkscape:pageopacity="0.0"
     inkscape:pageshadow="2"
     inkscape:zoom="1.979899"
     inkscape:cx="266.18318"
     inkscape:cy="-4.356141"
     inkscape:document-units="mm"
     inkscape:current-layer="layer1"
     inkscape:document-rotation="0"
     showgrid="false"
     inkscape:window-width="1920"
     inkscape:window-height="1004"
     inkscape:window-x="0"
     inkscape:window-y="48"
     inkscape:window-maximized="1" />
  <metadata
     id="metadata2876">
    <rdf:RDF>
      <cc:Work
         rdf:about="">
        <dc:format>image/svg+xml</dc:format>
        <dc:type
           rdf:resource="http://purl.org/dc/dcmitype/StillImage" />
        <dc:title />
      </cc:Work>
    </rdf:RDF>
  </metadata>
  <g
     inkscape:label="Calque 1"
     inkscape:groupmode="layer"
     id="layer1"
     transform="translate(-122.95231,-184.43349)">
    <g
       fill="none"
       stroke="#000000"
       stroke-opacity="1"
       stroke-width="1"
       stroke-linecap="square"
       stroke-linejoin="bevel"
       transform="matrix(0,-0.16866923,0.16866923,0,136.03276,197.63277)"
       font-family="Sans"
       font-size="12px"
       font-weight="400"
       font-style="normal"
       id="g818">
      <polyline
         fill="none"
         vector-effect="none"
         points="42,-3 42,0 -12,0 -12,-20 42,-20 42,-17 "
         id="polyline816" />
    </g>
    <g
       fill="none"
       stroke="#000000"
       stroke-opacity="1"
       stroke-width="1"
       stroke-linecap="square"
       stroke-linejoin="miter"
       stroke-miterlimit="2"
       transform="matrix(0,-0.16866923,0.16866923,0,136.03276,197.63277)"
       font-family="Sans"
       font-size="12px"
       font-weight="400"
       font-style="normal"
       id="g822">
      <polyline
         fill="none"
         vector-effect="none"
         points="-8,-30 -8,-20 "
         id="polyline820" />
    </g>
    <g
       fill="#000000"
       fill-opacity="1"
       stroke="#000000"
       stroke-opacity="1"
       stroke-width="1"
       stroke-linecap="square"
       stroke-linejoin="bevel"
       transform="matrix(0,-0.16866923,0.16866923,0,136.03276,197.63277)"
       font-family="Sans"
       font-size="12px"
       font-weight="400"
       font-style="normal"
       id="g826">
      <path
         vector-effect="none"
         fill-rule="evenodd"
         d="m -8,-15 -3,-5 h 5 l -2,5"
         id="path824" />
    </g>
    <g
       fill="none"
       stroke="#000000"
       stroke-opacity="1"
       stroke-width="1"
       stroke-linecap="square"
       stroke-linejoin="miter"
       stroke-miterlimit="2"
       transform="matrix(0,-0.16866923,0.16866923,0,136.03276,197.63277)"
       font-family="Sans"
       font-size="12px"
       font-weight="400"
       font-style="normal"
       id="g830">
      <polyline
         fill="none"
         vector-effect="none"
         points="-5,-3 50,-3 "
         id="polyline828" />
    </g>
    <g
       fill="none"
       stroke="#000000"
       stroke-opacity="1"
       stroke-width="1"
       stroke-linecap="square"
       stroke-linejoin="miter"
       stroke-miterlimit="2"
       transform="matrix(0,-0.16866923,0.16866923,0,136.03276,197.63277)"
       font-family="Sans"
       font-size="12px"
       font-weight="400"
       font-style="normal"
       id="g834">
      <polyline
         fill="none"
         vector-effect="none"
         points="-5,-17 50,-17 "
         id="polyline832" />
    </g>
    <g
       fill="none"
       stroke="#000000"
       stroke-opacity="1"
       stroke-width="1"
       stroke-linecap="square"
       stroke-linejoin="miter"
       stroke-miterlimit="2"
       transform="matrix(0,-0.16866923,0.16866923,0,136.03276,197.63277)"
       font-family="Sans"
       font-size="12px"
       font-weight="400"
       font-style="normal"
       id="g838">
      <polyline
         fill="none"
         vector-effect="none"
         points="-5,-17 -5,-3 "
         id="polyline836" />
    </g>
    <g
       fill="none"
       stroke="#000000"
       stroke-opacity="1"
       stroke-width="1"
       stroke-linecap="square"
       stroke-linejoin="miter"
       stroke-miterlimit="2"
       transform="matrix(0,-0.16866923,0.16866923,0,136.03276,197.63277)"
       font-family="Sans"
       font-size="12px"
       font-weight="400"
       font-style="normal"
       id="g842">
      <polyline
         fill="none"
         vector-effect="none"
         points="51,-17 51,-3 "
         id="polyline840" />
    </g>
  </g>
</svg>
