<?xml version="1.0" encoding="UTF-8" standalone="no"?>
<svg
   xmlns:dc="http://purl.org/dc/elements/1.1/"
   xmlns:cc="http://creativecommons.org/ns#"
   xmlns:rdf="http://www.w3.org/1999/02/22-rdf-syntax-ns#"
   xmlns:svg="http://www.w3.org/2000/svg"
   xmlns="http://www.w3.org/2000/svg"
   xmlns:sodipodi="http://sodipodi.sourceforge.net/DTD/sodipodi-0.dtd"
   xmlns:inkscape="http://www.inkscape.org/namespaces/inkscape"
   width="21.702513mm"
   height="21.204462mm"
   viewBox="0 0 21.702513 21.204462"
   version="1.1"
   id="svg8600"
   inkscape:version="1.0 (4035a4fb49, 2020-05-01)"
   sodipodi:docname="Bobine.svg">
  <defs
     id="defs8594" />
  <sodipodi:namedview
     id="base"
     pagecolor="#ffffff"
     bordercolor="#666666"
     borderopacity="1.0"
     inkscape:pageopacity="0.0"
     inkscape:pageshadow="2"
     inkscape:zoom="1.979899"
     inkscape:cx="71.424062"
     inkscape:cy="110.3824"
     inkscape:document-units="mm"
     inkscape:current-layer="layer1"
     inkscape:document-rotation="0"
     showgrid="false"
     inkscape:window-width="1920"
     inkscape:window-height="1004"
     inkscape:window-x="0"
     inkscape:window-y="48"
     inkscape:window-maximized="1" />
  <metadata
     id="metadata8597">
    <rdf:RDF>
      <cc:Work
         rdf:about="">
        <dc:format>image/svg+xml</dc:format>
        <dc:type
           rdf:resource="http://purl.org/dc/dcmitype/StillImage" />
        <dc:title />
      </cc:Work>
    </rdf:RDF>
  </metadata>
  <g
     inkscape:label="Calque 1"
     inkscape:groupmode="layer"
     id="layer1"
     transform="translate(-119.17255,-139.83229)">
    <g
       fill="none"
       stroke="#000000"
       stroke-opacity="1"
       stroke-width="1"
       stroke-linecap="square"
       stroke-linejoin="miter"
       stroke-miterlimit="2"
       transform="matrix(0.16866923,0,0,0.16866923,130.55685,149.43793)"
       font-family="Sans"
       font-size="12px"
       font-weight="400"
       font-style="normal"
       id="g148">
      <path
         vector-effect="none"
         fill-rule="evenodd"
         d="M -14,-8 H 14 V 8 H -14 V -8"
         id="path146" />
    </g>
    <g
       fill="none"
       stroke="#000000"
       stroke-opacity="1"
       stroke-width="1"
       stroke-linecap="square"
       stroke-linejoin="miter"
       stroke-miterlimit="2"
       transform="matrix(0.16866923,0,0,0.16866923,130.55685,149.43793)"
       font-family="Sans"
       font-size="12px"
       font-weight="400"
       font-style="normal"
       id="g152">
      <polyline
         fill="none"
         vector-effect="none"
         points="0,-20 0,-8 "
         id="polyline150" />
    </g>
    <g
       fill="none"
       stroke="#000000"
       stroke-opacity="1"
       stroke-width="1"
       stroke-linecap="square"
       stroke-linejoin="miter"
       stroke-miterlimit="2"
       transform="matrix(0.16866923,0,0,0.16866923,130.55685,149.43793)"
       font-family="Sans"
       font-size="12px"
       font-weight="400"
       font-style="normal"
       id="g156">
      <polyline
         fill="none"
         vector-effect="none"
         points="0,8 0,20 "
         id="polyline154" />
    </g>
    <g
       fill="none"
       stroke="#000000"
       stroke-opacity="1"
       stroke-width="1"
       stroke-linecap="square"
       stroke-linejoin="bevel"
       transform="matrix(0.16866923,0,0,0.16866923,130.8942,151.26514)"
       font-family="Sans"
       font-size="12px"
       font-weight="400"
       font-style="normal"
       id="g162">
      <text
         fill="#000000"
         fill-opacity="1"
         stroke="none"
         xml:space="preserve"
         x="4"
         y="11"
         font-family="'Sans Serif'"
         font-size="4px"
         font-weight="100"
         font-style="normal"
         id="text160">A2</text>
    </g>
    <g
       fill="none"
       stroke="#000000"
       stroke-opacity="1"
       stroke-width="1"
       stroke-linecap="square"
       stroke-linejoin="bevel"
       transform="matrix(0.16866923,0,0,0.16866923,130.55685,144.63098)"
       font-family="Sans"
       font-size="12px"
       font-weight="400"
       font-style="normal"
       id="g172">
      <text
         fill="#000000"
         fill-opacity="1"
         stroke="none"
         xml:space="preserve"
         x="4"
         y="11"
         font-family="'Sans Serif'"
         font-size="4px"
         font-weight="100"
         font-style="normal"
         id="text170">A1</text>
    </g>
  </g>
</svg>
