<?xml version="1.0" encoding="UTF-8" standalone="no"?>
<svg
   xmlns:dc="http://purl.org/dc/elements/1.1/"
   xmlns:cc="http://creativecommons.org/ns#"
   xmlns:rdf="http://www.w3.org/1999/02/22-rdf-syntax-ns#"
   xmlns:svg="http://www.w3.org/2000/svg"
   xmlns="http://www.w3.org/2000/svg"
   xmlns:sodipodi="http://sodipodi.sourceforge.net/DTD/sodipodi-0.dtd"
   xmlns:inkscape="http://www.inkscape.org/namespaces/inkscape"
   width="21.702513mm"
   height="21.204462mm"
   viewBox="0 0 21.702513 21.204462"
   version="1.1"
   id="svg9913"
   inkscape:version="1.0.2 (e86c870879, 2021-01-15)"
   sodipodi:docname="Contact_NF.svg">
  <defs
     id="defs9907" />
  <sodipodi:namedview
     id="base"
     pagecolor="#ffffff"
     bordercolor="#666666"
     borderopacity="1.0"
     inkscape:pageopacity="0.0"
     inkscape:pageshadow="2"
     inkscape:zoom="3.959798"
     inkscape:cx="212.96116"
     inkscape:cy="69.989671"
     inkscape:document-units="mm"
     inkscape:current-layer="layer1"
     inkscape:document-rotation="0"
     showgrid="false"
     inkscape:window-width="1920"
     inkscape:window-height="1016"
     inkscape:window-x="0"
     inkscape:window-y="0"
     inkscape:window-maximized="1" />
  <metadata
     id="metadata9910">
    <rdf:RDF>
      <cc:Work
         rdf:about="">
        <dc:format>image/svg+xml</dc:format>
        <dc:type
           rdf:resource="http://purl.org/dc/dcmitype/StillImage" />
        <dc:title></dc:title>
      </cc:Work>
    </rdf:RDF>
  </metadata>
  <g
     inkscape:label="Calque 1"
     inkscape:groupmode="layer"
     id="layer1"
     transform="translate(-91.958265,-136.80849)">
    <g
       fill="none"
       stroke="#000000"
       stroke-width="1"
       fill-rule="evenodd"
       stroke-linecap="square"
       stroke-linejoin="bevel"
       id="g473"
       transform="matrix(0.01252346,0,0,0.00900175,100.59658,142.29322)">
      <g
         fill="none"
         stroke="#000000"
         stroke-opacity="1"
         stroke-width="1"
         stroke-linecap="square"
         stroke-linejoin="bevel"
         transform="scale(0.6)"
         font-family="Cantarell"
         font-size="11px"
         font-weight="400"
         font-style="normal"
         id="g455" />
      <g
         fill="#ffffff"
         fill-opacity="1"
         stroke="none"
         transform="matrix(15.75,0,0,15.75,-7875,-2362.5)"
         font-family="Cantarell"
         font-size="11px"
         font-weight="400"
         font-style="normal"
         id="g459">
        <path
           vector-effect="none"
           fill-rule="evenodd"
           d="m 500,150 h 40 v 60 h -40 v -60"
           id="path457" />
      </g>
      <g
         fill="none"
         stroke="#000000"
         stroke-opacity="1"
         stroke-width="1"
         stroke-linecap="square"
         stroke-linejoin="bevel"
         transform="matrix(15.75,0,0,15.75,157.5,472.5)"
         font-family="Cantarell"
         font-size="11px"
         font-weight="400"
         font-style="normal"
         id="g463">
        <polyline
           fill="none"
           vector-effect="none"
           points="5,-10 0,10 0,20 "
           id="polyline461" />
      </g>
      <g
         fill="none"
         stroke="#000000"
         stroke-opacity="1"
         stroke-width="1"
         stroke-linecap="square"
         stroke-linejoin="miter"
         stroke-miterlimit="2"
         transform="matrix(15.75,0,0,15.75,157.5,472.5)"
         font-family="Cantarell"
         font-size="11px"
         font-weight="400"
         font-style="normal"
         id="g469">
        <polyline
           fill="none"
           vector-effect="none"
           points="0,-9 6,-9 "
           id="polyline465" />
        <polyline
           fill="none"
           vector-effect="none"
           points="0,-20 0,-9 "
           id="polyline467" />
      </g>
      <g
         fill="none"
         stroke="#000000"
         stroke-opacity="1"
         stroke-width="1"
         stroke-linecap="square"
         stroke-linejoin="bevel"
         transform="scale(0.6)"
         font-family="Cantarell"
         font-size="11px"
         font-weight="400"
         font-style="normal"
         id="g471" />
    </g>
  </g>
</svg>
