<?xml version="1.0" encoding="UTF-8" standalone="no"?>
<svg
   xmlns:dc="http://purl.org/dc/elements/1.1/"
   xmlns:cc="http://creativecommons.org/ns#"
   xmlns:rdf="http://www.w3.org/1999/02/22-rdf-syntax-ns#"
   xmlns:svg="http://www.w3.org/2000/svg"
   xmlns="http://www.w3.org/2000/svg"
   xmlns:sodipodi="http://sodipodi.sourceforge.net/DTD/sodipodi-0.dtd"
   xmlns:inkscape="http://www.inkscape.org/namespaces/inkscape"
   width="21.702513mm"
   height="21.204462mm"
   viewBox="0 0 21.702513 21.204462"
   version="1.1"
   id="svg7609"
   inkscape:version="1.0 (4035a4fb49, 2020-05-01)"
   sodipodi:docname="Disjoncteur_Magneto_Thermique_Tri.svg">
  <defs
     id="defs7603" />
  <sodipodi:namedview
     id="base"
     pagecolor="#ffffff"
     bordercolor="#666666"
     borderopacity="1.0"
     inkscape:pageopacity="0.0"
     inkscape:pageshadow="2"
     inkscape:zoom="3.959798"
     inkscape:cx="156.50367"
     inkscape:cy="75.186805"
     inkscape:document-units="mm"
     inkscape:current-layer="layer1"
     inkscape:document-rotation="0"
     showgrid="false"
     inkscape:window-width="1920"
     inkscape:window-height="1004"
     inkscape:window-x="0"
     inkscape:window-y="48"
     inkscape:window-maximized="1" />
  <metadata
     id="metadata7606">
    <rdf:RDF>
      <cc:Work
         rdf:about="">
        <dc:format>image/svg+xml</dc:format>
        <dc:type
           rdf:resource="http://purl.org/dc/dcmitype/StillImage" />
        <dc:title />
      </cc:Work>
    </rdf:RDF>
  </metadata>
  <g
     inkscape:label="Calque 1"
     inkscape:groupmode="layer"
     id="layer1"
     transform="translate(-83.642789,-99.010864)">
    <g
       fill="none"
       stroke="#000000"
       stroke-opacity="1"
       stroke-width="1"
       stroke-linecap="square"
       stroke-linejoin="bevel"
       transform="matrix(0.16866923,0,0,0.16866923,100.24261,100.37093)"
       font-family="Sans"
       font-size="12px"
       font-weight="400"
       font-style="normal"
       id="g276">
      <text
         fill="#000000"
         fill-opacity="1"
         stroke="none"
         xml:space="preserve"
         x="0"
         y="7"
         font-family="'Sans Serif'"
         font-size="4px"
         font-weight="100"
         font-style="normal"
         id="text274">5</text>
    </g>
    <g
       fill="none"
       stroke="#000000"
       stroke-opacity="1"
       stroke-width="1"
       stroke-linecap="square"
       stroke-linejoin="bevel"
       transform="matrix(0.16866923,0,0,0.16866923,100.24261,100.37093)"
       font-family="Sans"
       font-size="12px"
       font-weight="400"
       font-style="normal"
       id="g280">
      <text
         fill="#000000"
         fill-opacity="1"
         stroke="none"
         xml:space="preserve"
         x="0"
         y="16"
         font-family="'Sans Serif'"
         font-size="4px"
         font-weight="100"
         font-style="normal"
         id="text278">L3</text>
    </g>
    <g
       fill="none"
       stroke="#000000"
       stroke-opacity="1"
       stroke-width="1"
       stroke-linecap="square"
       stroke-linejoin="bevel"
       transform="matrix(0.16866923,0,0,0.16866923,100.24261,113.69588)"
       font-family="Sans"
       font-size="12px"
       font-weight="400"
       font-style="normal"
       id="g284">
      <text
         fill="#000000"
         fill-opacity="1"
         stroke="none"
         xml:space="preserve"
         x="0"
         y="7"
         font-family="'Sans Serif'"
         font-size="4px"
         font-weight="100"
         font-style="normal"
         id="text282">6</text>
    </g>
    <g
       fill="none"
       stroke="#000000"
       stroke-opacity="1"
       stroke-width="1"
       stroke-linecap="square"
       stroke-linejoin="bevel"
       transform="matrix(0.16866923,0,0,0.16866923,100.24261,113.69588)"
       font-family="Sans"
       font-size="12px"
       font-weight="400"
       font-style="normal"
       id="g288">
      <text
         fill="#000000"
         fill-opacity="1"
         stroke="none"
         xml:space="preserve"
         x="0"
         y="16"
         font-family="'Sans Serif'"
         font-size="4px"
         font-weight="100"
         font-style="normal"
         id="text286">T3</text>
    </g>
    <g
       fill="none"
       stroke="#000000"
       stroke-opacity="1"
       stroke-width="1"
       stroke-linecap="square"
       stroke-linejoin="bevel"
       transform="matrix(0.16866923,0,0,0.16866923,96.869223,113.69588)"
       font-family="Sans"
       font-size="12px"
       font-weight="400"
       font-style="normal"
       id="g292">
      <text
         fill="#000000"
         fill-opacity="1"
         stroke="none"
         xml:space="preserve"
         x="0"
         y="7"
         font-family="'Sans Serif'"
         font-size="4px"
         font-weight="100"
         font-style="normal"
         id="text290">4</text>
    </g>
    <g
       fill="none"
       stroke="#000000"
       stroke-opacity="1"
       stroke-width="1"
       stroke-linecap="square"
       stroke-linejoin="bevel"
       transform="matrix(0.16866923,0,0,0.16866923,96.869223,113.69588)"
       font-family="Sans"
       font-size="12px"
       font-weight="400"
       font-style="normal"
       id="g296">
      <text
         fill="#000000"
         fill-opacity="1"
         stroke="none"
         xml:space="preserve"
         x="0"
         y="16"
         font-family="'Sans Serif'"
         font-size="4px"
         font-weight="100"
         font-style="normal"
         id="text294">T2</text>
    </g>
    <g
       fill="none"
       stroke="#000000"
       stroke-opacity="1"
       stroke-width="1"
       stroke-linecap="square"
       stroke-linejoin="bevel"
       transform="matrix(0.16866923,0,0,0.16866923,96.869223,100.37093)"
       font-family="Sans"
       font-size="12px"
       font-weight="400"
       font-style="normal"
       id="g300">
      <text
         fill="#000000"
         fill-opacity="1"
         stroke="none"
         xml:space="preserve"
         x="0"
         y="7"
         font-family="'Sans Serif'"
         font-size="4px"
         font-weight="100"
         font-style="normal"
         id="text298">3</text>
    </g>
    <g
       fill="none"
       stroke="#000000"
       stroke-opacity="1"
       stroke-width="1"
       stroke-linecap="square"
       stroke-linejoin="bevel"
       transform="matrix(0.16866923,0,0,0.16866923,96.869223,100.37093)"
       font-family="Sans"
       font-size="12px"
       font-weight="400"
       font-style="normal"
       id="g304">
      <text
         fill="#000000"
         fill-opacity="1"
         stroke="none"
         xml:space="preserve"
         x="0"
         y="16"
         font-family="'Sans Serif'"
         font-size="4px"
         font-weight="100"
         font-style="normal"
         id="text302">L2</text>
    </g>
    <g
       fill="none"
       stroke="#000000"
       stroke-opacity="1"
       stroke-width="1"
       stroke-linecap="square"
       stroke-linejoin="bevel"
       transform="matrix(0.16866923,0,0,0.16866923,93.495812,113.69588)"
       font-family="Sans"
       font-size="12px"
       font-weight="400"
       font-style="normal"
       id="g308">
      <text
         fill="#000000"
         fill-opacity="1"
         stroke="none"
         xml:space="preserve"
         x="0"
         y="7"
         font-family="'Sans Serif'"
         font-size="4px"
         font-weight="100"
         font-style="normal"
         id="text306">2</text>
    </g>
    <g
       fill="none"
       stroke="#000000"
       stroke-opacity="1"
       stroke-width="1"
       stroke-linecap="square"
       stroke-linejoin="bevel"
       transform="matrix(0.16866923,0,0,0.16866923,93.495812,113.69588)"
       font-family="Sans"
       font-size="12px"
       font-weight="400"
       font-style="normal"
       id="g312">
      <text
         fill="#000000"
         fill-opacity="1"
         stroke="none"
         xml:space="preserve"
         x="0"
         y="16"
         font-family="'Sans Serif'"
         font-size="4px"
         font-weight="100"
         font-style="normal"
         id="text310">T1</text>
    </g>
    <g
       fill="none"
       stroke="#000000"
       stroke-opacity="1"
       stroke-width="1"
       stroke-linecap="square"
       stroke-linejoin="miter"
       stroke-miterlimit="2"
       transform="matrix(0.16866923,0,0,0.16866923,96.194536,108.29838)"
       font-family="Sans"
       font-size="12px"
       font-weight="400"
       font-style="normal"
       id="g316">
      <path
         vector-effect="none"
         fill-rule="evenodd"
         d="m -30,0 h 20 V 14 H -30 V 0"
         id="path314" />
    </g>
    <g
       fill="none"
       stroke="#000000"
       stroke-opacity="1"
       stroke-width="1"
       stroke-linecap="square"
       stroke-linejoin="miter"
       stroke-miterlimit="2"
       transform="matrix(0.16866923,0,0,0.16866923,96.194536,108.29838)"
       font-family="Sans"
       font-size="12px"
       font-weight="400"
       font-style="normal"
       id="g320">
      <polyline
         fill="none"
         vector-effect="none"
         points="20,28 20,40 "
         id="polyline318" />
    </g>
    <g
       fill="none"
       stroke="#000000"
       stroke-opacity="1"
       stroke-width="1"
       stroke-linecap="square"
       stroke-linejoin="miter"
       stroke-miterlimit="2"
       transform="matrix(0.16866923,0,0,0.16866923,96.194536,108.29838)"
       font-family="Sans"
       font-size="12px"
       font-weight="400"
       font-style="normal"
       id="g324">
      <path
         vector-effect="none"
         fill-rule="evenodd"
         d="M 10,14 H 30 V 28 H 10 V 14"
         id="path322" />
    </g>
    <g
       fill="none"
       stroke="#000000"
       stroke-opacity="1"
       stroke-width="1"
       stroke-linecap="square"
       stroke-linejoin="miter"
       stroke-miterlimit="2"
       transform="matrix(0.16866923,0,0,0.16866923,96.194536,108.29838)"
       font-family="Sans"
       font-size="12px"
       font-weight="400"
       font-style="normal"
       id="g328">
      <path
         vector-effect="none"
         fill-rule="evenodd"
         d="m -30,14 h 20 V 28 H -30 V 14"
         id="path326" />
    </g>
    <g
       fill="none"
       stroke="#000000"
       stroke-opacity="1"
       stroke-width="1"
       stroke-linecap="square"
       stroke-linejoin="bevel"
       transform="matrix(0.16866923,0,0,0.16866923,96.194536,108.29838)"
       font-family="Sans"
       font-size="12px"
       font-weight="400"
       font-style="normal"
       id="g332">
      <polyline
         fill="none"
         vector-effect="none"
         points="20,14 20,10 25,10 25,4 20,4 20,-7 13,-25 "
         id="polyline330" />
    </g>
    <g
       fill="none"
       stroke="#000000"
       stroke-opacity="1"
       stroke-width="1"
       stroke-linecap="square"
       stroke-linejoin="miter"
       stroke-miterlimit="2"
       transform="matrix(0.16866923,0,0,0.16866923,96.194536,108.29838)"
       font-family="Sans"
       font-size="12px"
       font-weight="400"
       font-style="normal"
       id="g336">
      <path
         vector-effect="none"
         fill-rule="evenodd"
         d="M -10,14 H 10 V 28 H -10 V 14"
         id="path334" />
    </g>
    <g
       fill="none"
       stroke="#000000"
       stroke-opacity="1"
       stroke-width="1"
       stroke-linecap="square"
       stroke-linejoin="miter"
       stroke-miterlimit="2"
       transform="matrix(0.16866923,0,0,0.16866923,96.194536,108.29838)"
       font-family="Sans"
       font-size="12px"
       font-weight="400"
       font-style="normal"
       id="g340">
      <polyline
         fill="none"
         vector-effect="none"
         points="0,28 0,40 "
         id="polyline338" />
    </g>
    <g
       fill="none"
       stroke="#000000"
       stroke-opacity="1"
       stroke-width="1"
       stroke-linecap="square"
       stroke-linejoin="bevel"
       transform="matrix(0.16866923,0,0,0.16866923,95.351176,110.15363)"
       font-family="Sans"
       font-size="12px"
       font-weight="400"
       font-style="normal"
       id="g344">
      <text
         fill="#000000"
         fill-opacity="1"
         stroke="none"
         xml:space="preserve"
         x="0"
         y="14"
         font-family="'Sans Serif'"
         font-size="9px"
         font-weight="400"
         font-style="normal"
         id="text342">I&gt;</text>
    </g>
    <g
       fill="none"
       stroke="#000000"
       stroke-opacity="1"
       stroke-width="1"
       stroke-linecap="square"
       stroke-linejoin="miter"
       stroke-miterlimit="2"
       transform="matrix(0.16866923,0,0,0.16866923,96.194536,108.29838)"
       font-family="Sans"
       font-size="12px"
       font-weight="400"
       font-style="normal"
       id="g348">
      <polyline
         fill="none"
         vector-effect="non-scaling-stroke"
         points="-60.05,-20.05 -60.05,-12.05 "
         id="polyline346" />
    </g>
    <g
       fill="none"
       stroke="#000000"
       stroke-opacity="1"
       stroke-width="1"
       stroke-linecap="square"
       stroke-linejoin="bevel"
       transform="matrix(0.16866923,0,0,0.16866923,96.194536,108.29838)"
       font-family="Sans"
       font-size="12px"
       font-weight="400"
       font-style="normal"
       id="g352">
      <polyline
         fill="none"
         vector-effect="none"
         points="0,14 0,10 5,10 5,4 0,4 0,-7 -7,-25 "
         id="polyline350" />
    </g>
    <g
       fill="none"
       stroke="#000000"
       stroke-opacity="1"
       stroke-width="1"
       stroke-linecap="square"
       stroke-linejoin="bevel"
       transform="matrix(0.16866923,0,0,0.16866923,98.724561,110.15363)"
       font-family="Sans"
       font-size="12px"
       font-weight="400"
       font-style="normal"
       id="g356">
      <text
         fill="#000000"
         fill-opacity="1"
         stroke="none"
         xml:space="preserve"
         x="0"
         y="14"
         font-family="'Sans Serif'"
         font-size="9px"
         font-weight="400"
         font-style="normal"
         id="text354">I&gt;</text>
    </g>
    <g
       fill="none"
       stroke="#000000"
       stroke-opacity="1"
       stroke-width="1"
       stroke-linecap="square"
       stroke-linejoin="miter"
       stroke-miterlimit="2"
       transform="matrix(0.16866923,0,0,0.16866923,96.194536,108.29838)"
       font-family="Sans"
       font-size="12px"
       font-weight="400"
       font-style="normal"
       id="g360">
      <polyline
         fill="none"
         vector-effect="non-scaling-stroke"
         points="-55,26 -55,34 "
         id="polyline358" />
    </g>
    <g
       fill="none"
       stroke="#000000"
       stroke-opacity="1"
       stroke-dasharray="4, 2"
       stroke-dashoffset="0"
       stroke-width="1"
       stroke-linecap="square"
       stroke-linejoin="bevel"
       transform="matrix(0.16866923,0,0,0.16866923,96.194536,108.29838)"
       font-family="Sans"
       font-size="12px"
       font-weight="400"
       font-style="normal"
       id="g364">
      <polyline
         fill="none"
         vector-effect="non-scaling-stroke"
         points="-55,30 -49,30 -47,33 -45,30 -40,30 "
         id="polyline362" />
    </g>
    <g
       fill="none"
       stroke="#000000"
       stroke-opacity="1"
       stroke-width="1"
       stroke-linecap="square"
       stroke-linejoin="miter"
       stroke-miterlimit="2"
       transform="matrix(0.16866923,0,0,0.16866923,96.194536,108.29838)"
       font-family="Sans"
       font-size="12px"
       font-weight="400"
       font-style="normal"
       id="g368">
      <path
         vector-effect="none"
         fill-rule="evenodd"
         d="M 10,0 H 30 V 14 H 10 V 0"
         id="path366" />
    </g>
    <g
       fill="none"
       stroke="#000000"
       stroke-opacity="1"
       stroke-width="1"
       stroke-linecap="square"
       stroke-linejoin="miter"
       stroke-miterlimit="2"
       transform="matrix(0.16866923,0,0,0.16866923,96.194536,108.29838)"
       font-family="Sans"
       font-size="12px"
       font-weight="400"
       font-style="normal"
       id="g372">
      <path
         vector-effect="none"
         fill-rule="evenodd"
         d="M -10,0 H 10 V 14 H -10 V 0"
         id="path370" />
    </g>
    <g
       fill="none"
       stroke="#000000"
       stroke-opacity="1"
       stroke-width="1"
       stroke-linecap="square"
       stroke-linejoin="miter"
       stroke-miterlimit="2"
       transform="matrix(0.16866923,0,0,0.16866923,96.194536,108.29838)"
       font-family="Sans"
       font-size="12px"
       font-weight="400"
       font-style="normal"
       id="g376">
      <polyline
         fill="none"
         vector-effect="none"
         points="-18,-29 -22,-25 "
         id="polyline374" />
    </g>
    <g
       fill="none"
       stroke="#000000"
       stroke-opacity="1"
       stroke-width="1"
       stroke-linecap="square"
       stroke-linejoin="miter"
       stroke-miterlimit="2"
       transform="matrix(0.16866923,0,0,0.16866923,96.194536,108.29838)"
       font-family="Sans"
       font-size="12px"
       font-weight="400"
       font-style="normal"
       id="g380">
      <polyline
         fill="none"
         vector-effect="none"
         points="-22,-29 -18,-25 "
         id="polyline378" />
    </g>
    <g
       fill="none"
       stroke="#000000"
       stroke-opacity="1"
       stroke-width="1"
       stroke-linecap="square"
       stroke-linejoin="miter"
       stroke-miterlimit="2"
       transform="matrix(0.16866923,0,0,0.16866923,96.194536,108.29838)"
       font-family="Sans"
       font-size="12px"
       font-weight="400"
       font-style="normal"
       id="g384">
      <polyline
         fill="none"
         vector-effect="none"
         points="2,-29 -2,-25 "
         id="polyline382" />
    </g>
    <g
       fill="none"
       stroke="#000000"
       stroke-opacity="1"
       stroke-width="1"
       stroke-linecap="square"
       stroke-linejoin="miter"
       stroke-miterlimit="2"
       transform="matrix(0.16866923,0,0,0.16866923,96.194536,108.29838)"
       font-family="Sans"
       font-size="12px"
       font-weight="400"
       font-style="normal"
       id="g388">
      <polyline
         fill="none"
         vector-effect="none"
         points="-2,-29 2,-25 "
         id="polyline386" />
    </g>
    <g
       fill="none"
       stroke="#000000"
       stroke-opacity="1"
       stroke-width="1"
       stroke-linecap="square"
       stroke-linejoin="miter"
       stroke-miterlimit="2"
       transform="matrix(0.16866923,0,0,0.16866923,96.194536,108.29838)"
       font-family="Sans"
       font-size="12px"
       font-weight="400"
       font-style="normal"
       id="g392">
      <polyline
         fill="none"
         vector-effect="none"
         points="22,-29 18,-25 "
         id="polyline390" />
    </g>
    <g
       fill="none"
       stroke="#000000"
       stroke-opacity="1"
       stroke-width="1"
       stroke-linecap="square"
       stroke-linejoin="miter"
       stroke-miterlimit="2"
       transform="matrix(0.16866923,0,0,0.16866923,96.194536,108.29838)"
       font-family="Sans"
       font-size="12px"
       font-weight="400"
       font-style="normal"
       id="g396">
      <polyline
         fill="none"
         vector-effect="none"
         points="18,-29 22,-25 "
         id="polyline394" />
    </g>
    <g
       fill="none"
       stroke="#000000"
       stroke-opacity="1"
       stroke-width="1"
       stroke-linecap="square"
       stroke-linejoin="miter"
       stroke-miterlimit="2"
       transform="matrix(0.16866923,0,0,0.16866923,96.194536,108.29838)"
       font-family="Sans"
       font-size="12px"
       font-weight="400"
       font-style="normal"
       id="g400">
      <polyline
         fill="none"
         vector-effect="none"
         points="20,-33 20,-31 "
         id="polyline398" />
    </g>
    <g
       fill="none"
       stroke="#000000"
       stroke-opacity="1"
       stroke-width="1"
       stroke-linecap="square"
       stroke-linejoin="miter"
       stroke-miterlimit="2"
       transform="matrix(0.16866923,0,0,0.16866923,96.194536,108.29838)"
       font-family="Sans"
       font-size="12px"
       font-weight="400"
       font-style="normal"
       id="g404">
      <polyline
         fill="none"
         vector-effect="none"
         points="-20,-27 -20,-40 "
         id="polyline402" />
    </g>
    <g
       fill="none"
       stroke="#000000"
       stroke-opacity="1"
       stroke-width="1"
       stroke-linecap="square"
       stroke-linejoin="miter"
       stroke-miterlimit="2"
       transform="matrix(0.16866923,0,0,0.16866923,96.194536,108.29838)"
       font-family="Sans"
       font-size="12px"
       font-weight="400"
       font-style="normal"
       id="g408">
      <polyline
         fill="none"
         vector-effect="none"
         points="20,-27 20,-40 "
         id="polyline406" />
    </g>
    <g
       fill="none"
       stroke="#000000"
       stroke-opacity="1"
       stroke-width="1"
       stroke-linecap="square"
       stroke-linejoin="miter"
       stroke-miterlimit="2"
       transform="matrix(0.16866923,0,0,0.16866923,96.194536,108.29838)"
       font-family="Sans"
       font-size="12px"
       font-weight="400"
       font-style="normal"
       id="g412">
      <polyline
         fill="none"
         vector-effect="none"
         points="0,-27 0,-40 "
         id="polyline410" />
    </g>
    <g
       fill="none"
       stroke="#000000"
       stroke-opacity="1"
       stroke-width="1"
       stroke-linecap="square"
       stroke-linejoin="miter"
       stroke-miterlimit="2"
       transform="matrix(0.16866923,0,0,0.16866923,96.194536,108.29838)"
       font-family="Sans"
       font-size="12px"
       font-weight="400"
       font-style="normal"
       id="g416">
      <path
         vector-effect="non-scaling-stroke"
         fill-rule="evenodd"
         d="m -46,-22 h 12 v 12 h -12 v -12"
         id="path414" />
    </g>
    <g
       fill="none"
       stroke="#000000"
       stroke-opacity="1"
       stroke-width="1"
       stroke-linecap="square"
       stroke-linejoin="bevel"
       transform="matrix(0.16866923,0,0,0.16866923,96.194536,108.29838)"
       font-family="Sans"
       font-size="12px"
       font-weight="400"
       font-style="normal"
       id="g420">
      <polyline
         fill="none"
         vector-effect="none"
         points="-20,14 -20,10 -15,10 -15,4 -20,4 -20,-7 -27,-25 "
         id="polyline418" />
    </g>
    <g
       fill="none"
       stroke="#000000"
       stroke-opacity="1"
       stroke-width="1"
       stroke-linecap="square"
       stroke-linejoin="miter"
       stroke-miterlimit="2"
       transform="matrix(0.16866923,0,0,0.16866923,96.194536,108.29838)"
       font-family="Sans"
       font-size="12px"
       font-weight="400"
       font-style="normal"
       id="g424">
      <polyline
         fill="none"
         vector-effect="none"
         points="-20,28 -20,40 "
         id="polyline422" />
    </g>
    <g
       fill="none"
       stroke="#000000"
       stroke-opacity="1"
       stroke-width="1"
       stroke-linecap="square"
       stroke-linejoin="bevel"
       transform="matrix(0.16866923,0,0,0.16866923,91.977792,110.15363)"
       font-family="Sans"
       font-size="12px"
       font-weight="400"
       font-style="normal"
       id="g428">
      <text
         fill="#000000"
         fill-opacity="1"
         stroke="none"
         xml:space="preserve"
         x="0"
         y="14"
         font-family="'Sans Serif'"
         font-size="9px"
         font-weight="400"
         font-style="normal"
         id="text426">I&gt;</text>
    </g>
    <g
       fill="none"
       stroke="#000000"
       stroke-opacity="1"
       stroke-dasharray="4, 2"
       stroke-dashoffset="0"
       stroke-width="1"
       stroke-linecap="square"
       stroke-linejoin="miter"
       stroke-miterlimit="2"
       transform="matrix(0.16866923,0,0,0.16866923,96.194536,108.29838)"
       font-family="Sans"
       font-size="12px"
       font-weight="400"
       font-style="normal"
       id="g432">
      <polyline
         fill="none"
         vector-effect="non-scaling-stroke"
         points="-30,7 -40,7 "
         id="polyline430" />
    </g>
    <g
       fill="none"
       stroke="#000000"
       stroke-opacity="1"
       stroke-dasharray="4, 2"
       stroke-dashoffset="0"
       stroke-width="1"
       stroke-linecap="square"
       stroke-linejoin="miter"
       stroke-miterlimit="2"
       transform="matrix(0.16866923,0,0,0.16866923,96.194536,108.29838)"
       font-family="Sans"
       font-size="12px"
       font-weight="400"
       font-style="normal"
       id="g436">
      <polyline
         fill="none"
         vector-effect="non-scaling-stroke"
         points="-30,21 -40,21 "
         id="polyline434" />
    </g>
    <g
       fill="none"
       stroke="#000000"
       stroke-opacity="1"
       stroke-dasharray="4, 2"
       stroke-dashoffset="0"
       stroke-width="1"
       stroke-linecap="square"
       stroke-linejoin="miter"
       stroke-miterlimit="2"
       transform="matrix(0.16866923,0,0,0.16866923,96.194536,108.29838)"
       font-family="Sans"
       font-size="12px"
       font-weight="400"
       font-style="normal"
       id="g440">
      <polyline
         fill="none"
         vector-effect="non-scaling-stroke"
         points="-40,-10 -40,30 "
         id="polyline438" />
    </g>
    <g
       fill="none"
       stroke="#000000"
       stroke-opacity="1"
       stroke-width="1"
       stroke-linecap="square"
       stroke-linejoin="miter"
       stroke-miterlimit="2"
       transform="matrix(0.16866923,0,0,0.16866923,96.194536,108.29838)"
       font-family="Sans"
       font-size="12px"
       font-weight="400"
       font-style="normal"
       id="g444">
      <polyline
         fill="none"
         vector-effect="non-scaling-stroke"
         points="-40,-22 -40,-10 "
         id="polyline442" />
    </g>
    <g
       fill="none"
       stroke="#000000"
       stroke-opacity="1"
       stroke-width="1"
       stroke-linecap="square"
       stroke-linejoin="miter"
       stroke-miterlimit="2"
       transform="matrix(0.16866923,0,0,0.16866923,96.194536,108.29838)"
       font-family="Sans"
       font-size="12px"
       font-weight="400"
       font-style="normal"
       id="g448">
      <polyline
         fill="none"
         vector-effect="non-scaling-stroke"
         points="-46,-16 -34,-16 "
         id="polyline446" />
    </g>
    <g
       fill="none"
       stroke="#000000"
       stroke-opacity="1"
       stroke-dasharray="4, 2"
       stroke-dashoffset="0"
       stroke-width="1"
       stroke-linecap="square"
       stroke-linejoin="miter"
       stroke-miterlimit="2"
       transform="matrix(0.16866923,0,0,0.16866923,96.194536,108.29838)"
       font-family="Sans"
       font-size="12px"
       font-weight="400"
       font-style="normal"
       id="g452">
      <polyline
         fill="none"
         vector-effect="non-scaling-stroke"
         points="-34,-16 16,-16 "
         id="polyline450" />
    </g>
    <g
       fill="none"
       stroke="#000000"
       stroke-opacity="1"
       stroke-dasharray="4, 2"
       stroke-dashoffset="0"
       stroke-width="1"
       stroke-linecap="square"
       stroke-linejoin="miter"
       stroke-miterlimit="2"
       transform="matrix(0.16866923,0,0,0.16866923,96.194536,108.29838)"
       font-family="Sans"
       font-size="12px"
       font-weight="400"
       font-style="normal"
       id="g456">
      <polyline
         fill="none"
         vector-effect="non-scaling-stroke"
         points="-60,-16 -46,-16 "
         id="polyline454" />
    </g>
    <g
       fill="none"
       stroke="#000000"
       stroke-opacity="1"
       stroke-width="1"
       stroke-linecap="square"
       stroke-linejoin="bevel"
       transform="matrix(0.16866923,0,0,0.16866923,96.194536,108.29838)"
       font-family="Sans"
       font-size="12px"
       font-weight="400"
       font-style="normal"
       id="g460">
      <path
         vector-effect="non-scaling-stroke"
         fill-rule="evenodd"
         d="m -52,-14 v -4 l -4,2 4,2"
         id="path458" />
    </g>
    <g
       fill="none"
       stroke="#000000"
       stroke-opacity="1"
       stroke-width="1"
       stroke-linecap="square"
       stroke-linejoin="bevel"
       transform="matrix(0.16866923,0,0,0.16866923,93.495812,100.37093)"
       font-family="Sans"
       font-size="12px"
       font-weight="400"
       font-style="normal"
       id="g464">
      <text
         fill="#000000"
         fill-opacity="1"
         stroke="none"
         xml:space="preserve"
         x="0"
         y="7"
         font-family="'Sans Serif'"
         font-size="4px"
         font-weight="100"
         font-style="normal"
         id="text462">1</text>
    </g>
    <g
       fill="none"
       stroke="#000000"
       stroke-opacity="1"
       stroke-width="1"
       stroke-linecap="square"
       stroke-linejoin="bevel"
       transform="matrix(0.16866923,0,0,0.16866923,93.495812,100.37093)"
       font-family="Sans"
       font-size="12px"
       font-weight="400"
       font-style="normal"
       id="g468">
      <text
         fill="#000000"
         fill-opacity="1"
         stroke="none"
         xml:space="preserve"
         x="0"
         y="16"
         font-family="'Sans Serif'"
         font-size="4px"
         font-weight="100"
         font-style="normal"
         id="text466">L1</text>
    </g>
  </g>
</svg>
