<?xml version="1.0" encoding="UTF-8" standalone="no"?>
<svg
   xmlns:dc="http://purl.org/dc/elements/1.1/"
   xmlns:cc="http://creativecommons.org/ns#"
   xmlns:rdf="http://www.w3.org/1999/02/22-rdf-syntax-ns#"
   xmlns:svg="http://www.w3.org/2000/svg"
   xmlns="http://www.w3.org/2000/svg"
   xmlns:sodipodi="http://sodipodi.sourceforge.net/DTD/sodipodi-0.dtd"
   xmlns:inkscape="http://www.inkscape.org/namespaces/inkscape"
   width="21.702513mm"
   height="21.204462mm"
   viewBox="0 0 21.702513 21.204462"
   version="1.1"
   id="svg8741"
   inkscape:version="1.0 (4035a4fb49, 2020-05-01)"
   sodipodi:docname="Interupteur_Sectionneur.svg">
  <defs
     id="defs8735" />
  <sodipodi:namedview
     id="base"
     pagecolor="#ffffff"
     bordercolor="#666666"
     borderopacity="1.0"
     inkscape:pageopacity="0.0"
     inkscape:pageshadow="2"
     inkscape:zoom="1.4"
     inkscape:cx="-93.688913"
     inkscape:cy="302.22766"
     inkscape:document-units="mm"
     inkscape:current-layer="layer1"
     inkscape:document-rotation="0"
     showgrid="false"
     inkscape:window-width="1920"
     inkscape:window-height="1004"
     inkscape:window-x="0"
     inkscape:window-y="48"
     inkscape:window-maximized="1" />
  <metadata
     id="metadata8738">
    <rdf:RDF>
      <cc:Work
         rdf:about="">
        <dc:format>image/svg+xml</dc:format>
        <dc:type
           rdf:resource="http://purl.org/dc/dcmitype/StillImage" />
        <dc:title />
      </cc:Work>
    </rdf:RDF>
  </metadata>
  <g
     inkscape:label="Calque 1"
     inkscape:groupmode="layer"
     id="layer1"
     transform="translate(-101.02969,-103.54658)">
    <g
       fill="none"
       stroke="#000000"
       stroke-opacity="1"
       stroke-width="1"
       stroke-linecap="square"
       stroke-linejoin="bevel"
       transform="matrix(0.16866923,0,0,0.16866923,111.75919,113.68241)"
       font-family="Sans"
       font-size="12px"
       font-weight="400"
       font-style="normal"
       id="g1438">
      <circle
         cx="30"
         cy="-10"
         r="2"
         id="circle1436" />
    </g>
    <g
       fill="none"
       stroke="#000000"
       stroke-opacity="1"
       stroke-width="1"
       stroke-linecap="square"
       stroke-linejoin="bevel"
       transform="matrix(0.16866923,0,0,0.16866923,111.75919,113.68241)"
       font-family="Sans"
       font-size="12px"
       font-weight="400"
       font-style="normal"
       id="g1442">
      <polyline
         fill="none"
         vector-effect="non-scaling-stroke"
         points="-24,-6 -25,-2 -21,-2 -22,-6 "
         id="polyline1440" />
    </g>
    <g
       fill="none"
       stroke="#000000"
       stroke-opacity="1"
       stroke-width="1"
       stroke-linecap="square"
       stroke-linejoin="bevel"
       transform="matrix(0.16866923,0,0,0.16866923,111.75919,113.68241)"
       font-family="Sans"
       font-size="12px"
       font-weight="400"
       font-style="normal"
       id="g1446">
      <circle
         cx="10"
         cy="-10"
         r="2"
         id="circle1444" />
    </g>
    <g
       fill="none"
       stroke="#000000"
       stroke-opacity="1"
       stroke-width="1"
       stroke-linecap="square"
       stroke-linejoin="bevel"
       transform="matrix(0.16866923,0,0,0.16866923,111.75919,113.68241)"
       font-family="Sans"
       font-size="12px"
       font-weight="400"
       font-style="normal"
       id="g1450">
      <circle
         vector-effect="non-scaling-stroke"
         cx="-23.000099"
         cy="-8.0000496"
         r="2.2360499"
         id="circle1448" />
    </g>
    <g
       fill="none"
       stroke="#000000"
       stroke-opacity="1"
       stroke-width="1"
       stroke-linecap="square"
       stroke-linejoin="bevel"
       transform="matrix(0.16866923,0,0,0.16866923,111.75919,113.68241)"
       font-family="Sans"
       font-size="12px"
       font-weight="400"
       font-style="normal"
       id="g1454">
      <circle
         cx="-10"
         cy="-10"
         r="2"
         id="circle1452" />
    </g>
    <g
       fill="none"
       stroke="#000000"
       stroke-opacity="1"
       stroke-width="1"
       stroke-linecap="square"
       stroke-linejoin="bevel"
       transform="matrix(0.16866923,0,0,0.16866923,111.75919,113.68241)"
       font-family="Sans"
       font-size="12px"
       font-weight="400"
       font-style="normal"
       id="g1458">
      <polyline
         fill="none"
         vector-effect="none"
         points="-15,-10 -10,10 -10,20 "
         id="polyline1456" />
    </g>
    <g
       fill="none"
       stroke="#000000"
       stroke-opacity="1"
       stroke-width="1"
       stroke-linecap="square"
       stroke-linejoin="bevel"
       transform="matrix(0.16866923,0,0,0.16866923,111.75919,113.68241)"
       font-family="Sans"
       font-size="12px"
       font-weight="400"
       font-style="normal"
       id="g1462">
      <polyline
         fill="none"
         vector-effect="none"
         points="25,-10 30,10 30,20 "
         id="polyline1460" />
    </g>
    <g
       fill="none"
       stroke="#000000"
       stroke-opacity="1"
       stroke-width="1"
       stroke-linecap="square"
       stroke-linejoin="bevel"
       transform="matrix(0.16866923,0,0,0.16866923,111.75919,113.68241)"
       font-family="Sans"
       font-size="12px"
       font-weight="400"
       font-style="normal"
       id="g1466">
      <polyline
         fill="none"
         vector-effect="none"
         points="5,-10 10,10 10,20 "
         id="polyline1464" />
    </g>
    <g
       fill="none"
       stroke="#000000"
       stroke-opacity="1"
       stroke-width="1"
       stroke-linecap="square"
       stroke-linejoin="miter"
       stroke-miterlimit="2"
       transform="matrix(0.16866923,0,0,0.16866923,111.75919,113.68241)"
       font-family="Sans"
       font-size="12px"
       font-weight="400"
       font-style="normal"
       id="g1470">
      <polyline
         fill="none"
         vector-effect="none"
         points="-10,-20 -10,-12 "
         id="polyline1468" />
    </g>
    <g
       fill="none"
       stroke="#000000"
       stroke-opacity="1"
       stroke-width="1"
       stroke-linecap="square"
       stroke-linejoin="miter"
       stroke-miterlimit="2"
       transform="matrix(0.16866923,0,0,0.16866923,111.75919,113.68241)"
       font-family="Sans"
       font-size="12px"
       font-weight="400"
       font-style="normal"
       id="g1474">
      <polyline
         fill="none"
         vector-effect="none"
         points="-8,-12 -12,-12 "
         id="polyline1472" />
    </g>
    <g
       fill="none"
       stroke="#000000"
       stroke-opacity="1"
       stroke-width="1"
       stroke-linecap="square"
       stroke-linejoin="miter"
       stroke-miterlimit="2"
       transform="matrix(0.16866923,0,0,0.16866923,111.75919,113.68241)"
       font-family="Sans"
       font-size="12px"
       font-weight="400"
       font-style="normal"
       id="g1478">
      <polyline
         fill="none"
         vector-effect="none"
         points="10,-20 10,-12 "
         id="polyline1476" />
    </g>
    <g
       fill="none"
       stroke="#000000"
       stroke-opacity="1"
       stroke-width="1"
       stroke-linecap="square"
       stroke-linejoin="miter"
       stroke-miterlimit="2"
       transform="matrix(0.16866923,0,0,0.16866923,111.75919,113.68241)"
       font-family="Sans"
       font-size="12px"
       font-weight="400"
       font-style="normal"
       id="g1482">
      <polyline
         fill="none"
         vector-effect="none"
         points="12,-12 8,-12 "
         id="polyline1480" />
    </g>
    <g
       fill="none"
       stroke="#000000"
       stroke-opacity="1"
       stroke-width="1"
       stroke-linecap="square"
       stroke-linejoin="miter"
       stroke-miterlimit="2"
       transform="matrix(0.16866923,0,0,0.16866923,111.75919,113.68241)"
       font-family="Sans"
       font-size="12px"
       font-weight="400"
       font-style="normal"
       id="g1486">
      <polyline
         fill="none"
         vector-effect="none"
         points="30,-20 30,-12 "
         id="polyline1484" />
    </g>
    <g
       fill="none"
       stroke="#000000"
       stroke-opacity="1"
       stroke-width="1"
       stroke-linecap="square"
       stroke-linejoin="miter"
       stroke-miterlimit="2"
       transform="matrix(0.16866923,0,0,0.16866923,111.75919,113.68241)"
       font-family="Sans"
       font-size="12px"
       font-weight="400"
       font-style="normal"
       id="g1490">
      <polyline
         fill="none"
         vector-effect="none"
         points="32,-12 28,-12 "
         id="polyline1488" />
    </g>
    <g
       fill="none"
       stroke="#000000"
       stroke-opacity="1"
       stroke-width="1"
       stroke-linecap="square"
       stroke-linejoin="bevel"
       transform="matrix(0.16866923,0,0,0.16866923,111.75919,113.68241)"
       font-family="Sans"
       font-size="12px"
       font-weight="400"
       font-style="normal"
       id="g1494">
      <polyline
         fill="none"
         vector-effect="none"
         points="-34,-4 -30,-4 -30,6 -25,6 -25,6 "
         id="polyline1492" />
    </g>
    <g
       fill="none"
       stroke="#000000"
       stroke-opacity="1"
       stroke-dasharray="4, 2"
       stroke-dashoffset="0"
       stroke-width="1"
       stroke-linecap="square"
       stroke-linejoin="miter"
       stroke-miterlimit="2"
       transform="matrix(0.16866923,0,0,0.16866923,111.75919,113.68241)"
       font-family="Sans"
       font-size="12px"
       font-weight="400"
       font-style="normal"
       id="g1498">
      <polyline
         fill="none"
         vector-effect="none"
         points="-29,0 27,0 "
         id="polyline1496" />
    </g>
  </g>
</svg>
