<?xml version="1.0" encoding="UTF-8" standalone="no"?>
<svg
   xmlns:dc="http://purl.org/dc/elements/1.1/"
   xmlns:cc="http://creativecommons.org/ns#"
   xmlns:rdf="http://www.w3.org/1999/02/22-rdf-syntax-ns#"
   xmlns:svg="http://www.w3.org/2000/svg"
   xmlns="http://www.w3.org/2000/svg"
   xmlns:sodipodi="http://sodipodi.sourceforge.net/DTD/sodipodi-0.dtd"
   xmlns:inkscape="http://www.inkscape.org/namespaces/inkscape"
   width="21.702513mm"
   height="21.204462mm"
   viewBox="0 0 21.702513 21.204462"
   version="1.1"
   id="svg8385"
   inkscape:version="1.0 (4035a4fb49, 2020-05-01)"
   sodipodi:docname="Moteur_Asynchrone.svg">
  <defs
     id="defs8379" />
  <sodipodi:namedview
     id="base"
     pagecolor="#ffffff"
     bordercolor="#666666"
     borderopacity="1.0"
     inkscape:pageopacity="0.0"
     inkscape:pageshadow="2"
     inkscape:zoom="2.8"
     inkscape:cx="118.07772"
     inkscape:cy="153.31796"
     inkscape:document-units="mm"
     inkscape:current-layer="layer1"
     inkscape:document-rotation="0"
     showgrid="false"
     inkscape:window-width="1920"
     inkscape:window-height="1004"
     inkscape:window-x="0"
     inkscape:window-y="48"
     inkscape:window-maximized="1" />
  <metadata
     id="metadata8382">
    <rdf:RDF>
      <cc:Work
         rdf:about="">
        <dc:format>image/svg+xml</dc:format>
        <dc:type
           rdf:resource="http://purl.org/dc/dcmitype/StillImage" />
        <dc:title />
      </cc:Work>
    </rdf:RDF>
  </metadata>
  <g
     inkscape:label="Calque 1"
     inkscape:groupmode="layer"
     id="layer1"
     transform="translate(-77.595174,-98.254914)">
    <g
       fill="none"
       stroke="#000000"
       stroke-opacity="1"
       stroke-width="1"
       stroke-linecap="square"
       stroke-linejoin="bevel"
       transform="matrix(0.16866923,0,0,0.16866923,88.010142,108.19519)"
       font-family="Sans"
       font-size="12px"
       font-weight="400"
       font-style="normal"
       id="g1266">
      <path
         vector-effect="none"
         fill-rule="evenodd"
         d="M 4,7 C 4,5.61929 4.89543,4.5 6,4.5 7.10457,4.5 8,5.61929 8,7"
         id="path1264" />
    </g>
    <g
       fill="none"
       stroke="#000000"
       stroke-opacity="1"
       stroke-width="1"
       stroke-linecap="square"
       stroke-linejoin="bevel"
       transform="matrix(0.16866923,0,0,0.16866923,88.010142,108.19519)"
       font-family="Sans"
       font-size="12px"
       font-weight="400"
       font-style="normal"
       id="g1270">
      <circle
         cx="0"
         cy="0"
         r="15"
         id="circle1268" />
    </g>
    <g
       fill="none"
       stroke="#000000"
       stroke-opacity="1"
       stroke-width="1"
       stroke-linecap="square"
       stroke-linejoin="bevel"
       transform="matrix(0.16866923,0,0,0.16866923,92.058267,103.1353)"
       font-family="Sans"
       font-size="12px"
       font-weight="400"
       font-style="normal"
       id="g1274">
      <text
         fill="#000000"
         fill-opacity="1"
         stroke="none"
         xml:space="preserve"
         x="0"
         y="7"
         font-family="'Sans Serif'"
         font-size="4px"
         font-weight="100"
         font-style="normal"
         id="text1272">W1</text>
    </g>
    <g
       fill="none"
       stroke="#000000"
       stroke-opacity="1"
       stroke-width="1"
       stroke-linecap="square"
       stroke-linejoin="bevel"
       transform="matrix(0.16866923,0,0,0.16866923,88.68483,102.96649)"
       font-family="Sans"
       font-size="12px"
       font-weight="400"
       font-style="normal"
       id="g1278">
      <text
         fill="#000000"
         fill-opacity="1"
         stroke="none"
         xml:space="preserve"
         x="0"
         y="7"
         font-family="'Sans Serif'"
         font-size="4px"
         font-weight="100"
         font-style="normal"
         id="text1276">V1</text>
    </g>
    <g
       fill="none"
       stroke="#000000"
       stroke-opacity="1"
       stroke-width="1"
       stroke-linecap="square"
       stroke-linejoin="bevel"
       transform="matrix(0.16866923,0,0,0.16866923,92.058267,111.73743)"
       font-family="Sans"
       font-size="12px"
       font-weight="400"
       font-style="normal"
       id="g1282">
      <text
         fill="#000000"
         fill-opacity="1"
         stroke="none"
         xml:space="preserve"
         x="0"
         y="7"
         font-family="'Sans Serif'"
         font-size="4px"
         font-weight="100"
         font-style="normal"
         id="text1280">W2</text>
    </g>
    <g
       fill="none"
       stroke="#000000"
       stroke-opacity="1"
       stroke-width="1"
       stroke-linecap="square"
       stroke-linejoin="bevel"
       transform="matrix(0.16866923,0,0,0.16866923,85.311392,111.73743)"
       font-family="Sans"
       font-size="12px"
       font-weight="400"
       font-style="normal"
       id="g1286">
      <text
         fill="#000000"
         fill-opacity="1"
         stroke="none"
         xml:space="preserve"
         x="0"
         y="7"
         font-family="'Sans Serif'"
         font-size="4px"
         font-weight="100"
         font-style="normal"
         id="text1284">U2</text>
    </g>
    <g
       fill="none"
       stroke="#000000"
       stroke-opacity="1"
       stroke-width="1"
       stroke-linecap="square"
       stroke-linejoin="bevel"
       transform="matrix(0.16866923,0,0,0.16866923,88.68483,111.73743)"
       font-family="Sans"
       font-size="12px"
       font-weight="400"
       font-style="normal"
       id="g1290">
      <text
         fill="#000000"
         fill-opacity="1"
         stroke="none"
         xml:space="preserve"
         x="0"
         y="7"
         font-family="'Sans Serif'"
         font-size="4px"
         font-weight="100"
         font-style="normal"
         id="text1288">V2</text>
    </g>
    <g
       fill="none"
       stroke="#000000"
       stroke-opacity="1"
       stroke-width="1"
       stroke-linecap="square"
       stroke-linejoin="miter"
       stroke-miterlimit="2"
       transform="matrix(0.16866923,0,0,0.16866923,88.010142,108.19519)"
       font-family="Sans"
       font-size="12px"
       font-weight="400"
       font-style="normal"
       id="g1294">
      <polyline
         fill="none"
         vector-effect="none"
         points="0,15 0,30 "
         id="polyline1292" />
    </g>
    <g
       fill="none"
       stroke="#000000"
       stroke-opacity="1"
       stroke-width="1"
       stroke-linecap="square"
       stroke-linejoin="bevel"
       transform="matrix(0.16866923,0,0,0.16866923,86.998111,105.3279)"
       font-family="Sans"
       font-size="12px"
       font-weight="400"
       font-style="normal"
       id="g1298">
      <text
         fill="#000000"
         fill-opacity="1"
         stroke="none"
         xml:space="preserve"
         x="0"
         y="17"
         font-family="'Sans Serif'"
         font-size="11px"
         font-weight="400"
         font-style="normal"
         id="text1296">M</text>
    </g>
    <g
       fill="none"
       stroke="#000000"
       stroke-opacity="1"
       stroke-width="1"
       stroke-linecap="square"
       stroke-linejoin="miter"
       stroke-miterlimit="2"
       transform="matrix(0.16866923,0,0,0.16866923,88.010142,108.19519)"
       font-family="Sans"
       font-size="12px"
       font-weight="400"
       font-style="normal"
       id="g1302">
      <polyline
         fill="none"
         vector-effect="none"
         points="0,-30 0,-15 "
         id="polyline1300" />
    </g>
    <g
       fill="none"
       stroke="#000000"
       stroke-opacity="1"
       stroke-width="1"
       stroke-linecap="square"
       stroke-linejoin="bevel"
       transform="matrix(0.16866923,0,0,0.16866923,88.010142,108.19519)"
       font-family="Sans"
       font-size="12px"
       font-weight="400"
       font-style="normal"
       id="g1306">
      <polyline
         fill="none"
         vector-effect="none"
         points="-20,-30 -20,-20 -11,-11 "
         id="polyline1304" />
    </g>
    <g
       fill="none"
       stroke="#000000"
       stroke-opacity="1"
       stroke-width="1"
       stroke-linecap="square"
       stroke-linejoin="bevel"
       transform="matrix(0.16866923,0,0,0.16866923,88.010142,108.19519)"
       font-family="Sans"
       font-size="12px"
       font-weight="400"
       font-style="normal"
       id="g1310">
      <polyline
         fill="none"
         vector-effect="none"
         points="20,-30 20,-20 11,-11 "
         id="polyline1308" />
    </g>
    <g
       fill="none"
       stroke="#000000"
       stroke-opacity="1"
       stroke-width="1"
       stroke-linecap="square"
       stroke-linejoin="bevel"
       transform="matrix(0.16866923,0,0,0.16866923,88.010142,108.19519)"
       font-family="Sans"
       font-size="12px"
       font-weight="400"
       font-style="normal"
       id="g1314">
      <polyline
         fill="none"
         vector-effect="none"
         points="-20,30 -20,20 -11,11 "
         id="polyline1312" />
    </g>
    <g
       fill="none"
       stroke="#000000"
       stroke-opacity="1"
       stroke-width="1"
       stroke-linecap="square"
       stroke-linejoin="bevel"
       transform="matrix(0.16866923,0,0,0.16866923,88.010142,108.19519)"
       font-family="Sans"
       font-size="12px"
       font-weight="400"
       font-style="normal"
       id="g1318">
      <polyline
         fill="none"
         vector-effect="none"
         points="20,30 20,20 11,11 "
         id="polyline1316" />
    </g>
    <g
       fill="none"
       stroke="#000000"
       stroke-opacity="1"
       stroke-width="1"
       stroke-linecap="square"
       stroke-linejoin="bevel"
       transform="matrix(0.16866923,0,0,0.16866923,85.311392,103.1353)"
       font-family="Sans"
       font-size="12px"
       font-weight="400"
       font-style="normal"
       id="g1322">
      <text
         fill="#000000"
         fill-opacity="1"
         stroke="none"
         xml:space="preserve"
         x="0"
         y="7"
         font-family="'Sans Serif'"
         font-size="4px"
         font-weight="100"
         font-style="normal"
         id="text1320">U1</text>
    </g>
    <g
       fill="none"
       stroke="#000000"
       stroke-opacity="1"
       stroke-width="1"
       stroke-linecap="square"
       stroke-linejoin="bevel"
       transform="matrix(0.16866923,0,0,0.16866923,86.660767,107.68931)"
       font-family="Sans"
       font-size="12px"
       font-weight="400"
       font-style="normal"
       id="g1326">
      <text
         fill="#000000"
         fill-opacity="1"
         stroke="none"
         xml:space="preserve"
         x="0"
         y="14"
         font-family="'Sans Serif'"
         font-size="9px"
         font-weight="400"
         font-style="normal"
         id="text1324">3</text>
    </g>
    <g
       fill="none"
       stroke="#000000"
       stroke-opacity="1"
       stroke-width="1"
       stroke-linecap="square"
       stroke-linejoin="bevel"
       transform="matrix(0.16866923,0,0,0.16866923,88.010142,108.19519)"
       font-family="Sans"
       font-size="12px"
       font-weight="400"
       font-style="normal"
       id="g1330">
      <path
         vector-effect="none"
         fill-rule="evenodd"
         d="M 4,7 C 4,8.38071 3.10457,9.5 2,9.5 0.895431,9.5 0,8.38071 0,7"
         id="path1328" />
    </g>
  </g>
</svg>
