<?xml version="1.0" encoding="UTF-8" standalone="no"?>
<svg
   xmlns:dc="http://purl.org/dc/elements/1.1/"
   xmlns:cc="http://creativecommons.org/ns#"
   xmlns:rdf="http://www.w3.org/1999/02/22-rdf-syntax-ns#"
   xmlns:svg="http://www.w3.org/2000/svg"
   xmlns="http://www.w3.org/2000/svg"
   xmlns:sodipodi="http://sodipodi.sourceforge.net/DTD/sodipodi-0.dtd"
   xmlns:inkscape="http://www.inkscape.org/namespaces/inkscape"
   width="21.702513mm"
   height="21.204462mm"
   viewBox="0 0 21.702513 21.204462"
   version="1.1"
   id="svg10426"
   inkscape:version="1.0 (4035a4fb49, 2020-05-01)"
   sodipodi:docname="Sectionneur_Fusible_Neutre.svg">
  <defs
     id="defs10420" />
  <sodipodi:namedview
     id="base"
     pagecolor="#ffffff"
     bordercolor="#666666"
     borderopacity="1.0"
     inkscape:pageopacity="0.0"
     inkscape:pageshadow="2"
     inkscape:zoom="1.979899"
     inkscape:cx="202.96859"
     inkscape:cy="94.030716"
     inkscape:document-units="mm"
     inkscape:current-layer="layer1"
     inkscape:document-rotation="0"
     showgrid="false"
     inkscape:window-width="1920"
     inkscape:window-height="1004"
     inkscape:window-x="0"
     inkscape:window-y="48"
     inkscape:window-maximized="1" />
  <metadata
     id="metadata10423">
    <rdf:RDF>
      <cc:Work
         rdf:about="">
        <dc:format>image/svg+xml</dc:format>
        <dc:type
           rdf:resource="http://purl.org/dc/dcmitype/StillImage" />
        <dc:title />
      </cc:Work>
    </rdf:RDF>
  </metadata>
  <g
     inkscape:label="Calque 1"
     inkscape:groupmode="layer"
     id="layer1"
     transform="translate(-99.517789,-116.39777)">
    <g
       fill="none"
       stroke="#000000"
       stroke-opacity="1"
       stroke-width="1"
       stroke-linecap="square"
       stroke-linejoin="bevel"
       transform="matrix(0.16866923,0,0,0.16866923,110.27096,126.32113)"
       font-family="Sans"
       font-size="12px"
       font-weight="400"
       font-style="normal"
       id="g16">
      <polyline
         fill="none"
         vector-effect="none"
         points="-15,-10 -10,10 -10,20 "
         id="polyline14" />
    </g>
    <g
       fill="none"
       stroke="#000000"
       stroke-opacity="1"
       stroke-width="1"
       stroke-linecap="square"
       stroke-linejoin="bevel"
       transform="matrix(0.16866923,0,0,0.16866923,110.27096,126.32113)"
       font-family="Sans"
       font-size="12px"
       font-weight="400"
       font-style="normal"
       id="g20">
      <polyline
         fill="none"
         vector-effect="none"
         points="5,-10 10,10 10,20 "
         id="polyline18" />
    </g>
    <g
       fill="none"
       stroke="#000000"
       stroke-opacity="1"
       stroke-width="1"
       stroke-linecap="square"
       stroke-linejoin="bevel"
       transform="matrix(0.16866923,0,0,0.16866923,110.27096,126.32113)"
       font-family="Sans"
       font-size="12px"
       font-weight="400"
       font-style="normal"
       id="g24">
      <path
         vector-effect="none"
         fill-rule="evenodd"
         d="m 4.31,-4.51 2.5,10 3.88,-0.98 -2.5,-10 -3.88,0.98"
         id="path22" />
    </g>
    <g
       fill="none"
       stroke="#000000"
       stroke-opacity="1"
       stroke-width="1"
       stroke-linecap="square"
       stroke-linejoin="miter"
       stroke-miterlimit="2"
       transform="matrix(0.16866923,0,0,0.16866923,110.27096,126.32113)"
       font-family="Sans"
       font-size="12px"
       font-weight="400"
       font-style="normal"
       id="g28">
      <polyline
         fill="none"
         vector-effect="none"
         points="8,-10 12,-10 "
         id="polyline26" />
    </g>
    <g
       fill="none"
       stroke="#000000"
       stroke-opacity="1"
       stroke-width="1"
       stroke-linecap="square"
       stroke-linejoin="miter"
       stroke-miterlimit="2"
       transform="matrix(0.16866923,0,0,0.16866923,110.27096,126.32113)"
       font-family="Sans"
       font-size="12px"
       font-weight="400"
       font-style="normal"
       id="g32">
      <polyline
         fill="none"
         vector-effect="none"
         points="10,-20 10,-10 "
         id="polyline30" />
    </g>
    <g
       fill="none"
       stroke="#000000"
       stroke-opacity="1"
       stroke-width="1"
       stroke-linecap="square"
       stroke-linejoin="miter"
       stroke-miterlimit="2"
       transform="matrix(0.16866923,0,0,0.16866923,110.27096,126.32113)"
       font-family="Sans"
       font-size="12px"
       font-weight="400"
       font-style="normal"
       id="g36">
      <polyline
         fill="none"
         vector-effect="none"
         points="-10,-20 -10,-10 "
         id="polyline34" />
    </g>
    <g
       fill="none"
       stroke="#000000"
       stroke-opacity="1"
       stroke-width="1"
       stroke-linecap="square"
       stroke-linejoin="miter"
       stroke-miterlimit="2"
       transform="matrix(0.16866923,0,0,0.16866923,110.27096,126.32113)"
       font-family="Sans"
       font-size="12px"
       font-weight="400"
       font-style="normal"
       id="g40">
      <polyline
         fill="none"
         vector-effect="none"
         points="-8,-10 -12,-10 "
         id="polyline38" />
    </g>
    <g
       fill="none"
       stroke="#000000"
       stroke-opacity="1"
       stroke-dasharray="4, 2"
       stroke-dashoffset="0"
       stroke-width="1"
       stroke-linecap="square"
       stroke-linejoin="miter"
       stroke-miterlimit="2"
       transform="matrix(0.16866923,0,0,0.16866923,110.27096,126.32113)"
       font-family="Sans"
       font-size="12px"
       font-weight="400"
       font-style="normal"
       id="g44">
      <polyline
         fill="none"
         vector-effect="non-scaling-stroke"
         points="-13,0 5,0 "
         id="polyline42" />
    </g>
  </g>
</svg>
